"CountryOfMother","Year","AgeOfMother","Count"
"Total",2017,"All ages",679106
"United Kingdom",2017,"All ages",486417
"Total outside United Kingdom",2017,"All ages",192651
"EU",2017,"All ages",71472
"New EU",2017,"All ages",51863
"Poland",2017,"All ages",20779
"Rest of Europe (non EU)",2017,"All ages",10385
"Africa",2017,"All ages",32875
"North Africa",2017,"All ages",3907
"Western Africa",2017,"All ages",11381
"Central Africa",2017,"All ages",2245
"Eastern Africa",2017,"All ages",11899
"Southern Africa",2017,"All ages",3395
"The Americas and the Caribbean",2017,"All ages",11102
"North America",2017,"All ages",4429
"Central America",2017,"All ages",410
"South America",2017,"All ages",3823
"Caribbean",2017,"All ages",2440
"Middle East and Asia",2017,"All ages",64126
"Middle East",2017,"All ages",8269
"Central Asia",2017,"All ages",397
"Eastern Asia",2017,"All ages",5346
"Southern Asia",2017,"All ages",44953
"India",2017,"All ages",13476
"Pakistan",2017,"All ages",17099
"Bangladesh",2017,"All ages",7426
"South East Asia",2017,"All ages",5117
"Antarctica and Oceania",2017,"All ages",2691
"Australasia",2017,"All ages",2499
"Other Oceania",2017,"All ages",192
"Not Stated",2017,"All ages",38
"Total",2016,"All ages",696271
"United Kingdom",2016,"All ages",499974
"Total outside United Kingdom",2016,"All ages",196254
"EU",2016,"All ages",71669
"New EU",2016,"All ages",51962
"Poland",2016,"All ages",22382
"Rest of Europe (non EU)",2016,"All ages",9930
"Africa",2016,"All ages",34437
"North Africa",2016,"All ages",3901
"Western Africa",2016,"All ages",12254
"Central Africa",2016,"All ages",2247
"Eastern Africa",2016,"All ages",12371
"Southern Africa",2016,"All ages",3613
"The Americas and the Caribbean",2016,"All ages",11441
"North America",2016,"All ages",4633
"Central America",2016,"All ages",402
"South America",2016,"All ages",3799
"Caribbean",2016,"All ages",2607
"Middle East and Asia",2016,"All ages",65961
"Middle East",2016,"All ages",7883
"Central Asia",2016,"All ages",403
"Eastern Asia",2016,"All ages",5836
"Southern Asia",2016,"All ages",46409
"India",2016,"All ages",13883
"Pakistan",2016,"All ages",17367
"Bangladesh",2016,"All ages",8106
"South East Asia",2016,"All ages",5365
"Antarctica and Oceania",2016,"All ages",2816
"Australasia",2016,"All ages",2602
"Other Oceania",2016,"All ages",214
"Not Stated",2016,"All ages",43
"Total",2015,"All ages",697852
"United Kingdom",2015,"All ages",505588
"Total outside United Kingdom",2015,"All ages",192227
"EU",2015,"All ages",69070
"New EU",2015,"All ages",49642
"Poland",2015,"All ages",22928
"Rest of Europe (non EU)",2015,"All ages",9208
"Africa",2015,"All ages",34960
"North Africa",2015,"All ages",3853
"Western Africa",2015,"All ages",12472
"Central Africa",2015,"All ages",2343
"Eastern Africa",2015,"All ages",12499
"Southern Africa",2015,"All ages",3743
"The Americas and the Caribbean",2015,"All ages",11346
"North America",2015,"All ages",4564
"Central America",2015,"All ages",414
"South America",2015,"All ages",3594
"Caribbean",2015,"All ages",2774
"Middle East and Asia",2015,"All ages",64748
"Middle East",2015,"All ages",7409
"Central Asia",2015,"All ages",422
"Eastern Asia",2015,"All ages",5538
"Southern Asia",2015,"All ages",45795
"India",2015,"All ages",13780
"Pakistan",2015,"All ages",17342
"Bangladesh",2015,"All ages",7752
"South East Asia",2015,"All ages",5519
"Antarctica and Oceania",2015,"All ages",2895
"Australasia",2015,"All ages",2695
"Other Oceania",2015,"All ages",200
"Not Stated",2015,"All ages",37
"Total",2014,"All ages",695233
"United Kingdom",2014,"All ages",507587
"Total outside United Kingdom",2014,"All ages",187610
"EU",2014,"All ages",64067
"New EU",2014,"All ages",45344
"Poland",2014,"All ages",22122
"Rest of Europe (non EU)",2014,"All ages",8562
"Africa",2014,"All ages",35030
"North Africa",2014,"All ages",3733
"Western Africa",2014,"All ages",12613
"Central Africa",2014,"All ages",2275
"Eastern Africa",2014,"All ages",12586
"Southern Africa",2014,"All ages",3765
"The Americas and the Caribbean",2014,"All ages",11191
"North America",2014,"All ages",4586
"Central America",2014,"All ages",403
"South America",2014,"All ages",3419
"Caribbean",2014,"All ages",2783
"Middle East and Asia",2014,"All ages",65725
"Middle East",2014,"All ages",7073
"Central Asia",2014,"All ages",376
"Eastern Asia",2014,"All ages",6072
"Southern Asia",2014,"All ages",46485
"India",2014,"All ages",13735
"Pakistan",2014,"All ages",17943
"Bangladesh",2014,"All ages",7783
"South East Asia",2014,"All ages",5641
"Antarctica and Oceania",2014,"All ages",3035
"Australasia",2014,"All ages",2800
"Other Oceania",2014,"All ages",235
"Not Stated",2014,"All ages",36
"Total",2013,"All ages",698512
"United Kingdom",2013,"All ages",513411
"Total outside United Kingdom",2013,"All ages",185075
"EU",2013,"All ages",60448
"New EU",2013,"All ages",42523
"Poland",2013,"All ages",21275
"Rest of Europe (non EU)",2013,"All ages",7959
"Africa",2013,"All ages",36264
"North Africa",2013,"All ages",3661
"Western Africa",2013,"All ages",12906
"Central Africa",2013,"All ages",2288
"Eastern Africa",2013,"All ages",13305
"Southern Africa",2013,"All ages",4032
"The Americas and the Caribbean",2013,"All ages",10933
"North America",2013,"All ages",4382
"Central America",2013,"All ages",365
"South America",2013,"All ages",3301
"Caribbean",2013,"All ages",2885
"Middle East and Asia",2013,"All ages",66324
"Middle East",2013,"All ages",6773
"Central Asia",2013,"All ages",364
"Eastern Asia",2013,"All ages",5605
"Southern Asia",2013,"All ages",47755
"India",2013,"All ages",14044
"Pakistan",2013,"All ages",18578
"Bangladesh",2013,"All ages",7982
"South East Asia",2013,"All ages",5774
"Antarctica and Oceania",2013,"All ages",3147
"Australasia",2013,"All ages",2921
"Other Oceania",2013,"All ages",226
"Not Stated",2013,"All ages",26
"Total",2012,"All ages",729674
"United Kingdom",2012,"All ages",540572
"Total outside United Kingdom",2012,"All ages",189079
"EU",2012,"All ages",58911
"New EU",2012,"All ages",40821
"Poland",2012,"All ages",21156
"Rest of Europe (non EU)",2012,"All ages",7890
"Africa",2012,"All ages",37837
"North Africa",2012,"All ages",3488
"Western Africa",2012,"All ages",13344
"Central Africa",2012,"All ages",2356
"Eastern Africa",2012,"All ages",14149
"Southern Africa",2012,"All ages",4425
"The Americas and the Caribbean",2012,"All ages",11317
"North America",2012,"All ages",4567
"Central America",2012,"All ages",345
"South America",2012,"All ages",3285
"Caribbean",2012,"All ages",3120
"Middle East and Asia",2012,"All ages",69667
"Middle East",2012,"All ages",6781
"Central Asia",2012,"All ages",375
"Eastern Asia",2012,"All ages",6541
"Southern Asia",2012,"All ages",49302
"India",2012,"All ages",14621
"Pakistan",2012,"All ages",19091
"Bangladesh",2012,"All ages",8224
"South East Asia",2012,"All ages",6592
"Antarctica and Oceania",2012,"All ages",3457
"Australasia",2012,"All ages",3232
"Other Oceania",2012,"All ages",223
"Not Stated",2012,"All ages",23
"Total",2011,"All ages",723913
"United Kingdom",2011,"All ages",539364
"Total outside United Kingdom",2011,"All ages",184529
"EU",2011,"All ages",55058
"New EU",2011,"All ages",37063
"Poland",2011,"All ages",20495
"Rest of Europe (non EU)",2011,"All ages",7537
"Africa",2011,"All ages",38523
"North Africa",2011,"All ages",3562
"Western Africa",2011,"All ages",13067
"Central Africa",2011,"All ages",2364
"Eastern Africa",2011,"All ages",14800
"Southern Africa",2011,"All ages",4651
"The Americas and the Caribbean",2011,"All ages",11286
"North America",2011,"All ages",4518
"Central America",2011,"All ages",373
"South America",2011,"All ages",3282
"Caribbean",2011,"All ages",3113
"Middle East and Asia",2011,"All ages",68534
"Middle East",2011,"All ages",6793
"Central Asia",2011,"All ages",360
"Eastern Asia",2011,"All ages",5928
"Southern Asia",2011,"All ages",48817
"India",2011,"All ages",14892
"Pakistan",2011,"All ages",18434
"Bangladesh",2011,"All ages",8371
"South East Asia",2011,"All ages",6561
"Antarctica and Oceania",2011,"All ages",3591
"Australasia",2011,"All ages",3350
"Other Oceania",2011,"All ages",239
"Not Stated",2011,"All ages",20
"Total",2010,"All ages",723165
"United Kingdom",2010,"All ages",541321
"Total outside United Kingdom",2010,"All ages",181827
"EU",2010,"All ages",52699
"New EU",2010,"All ages",34194
"Poland",2010,"All ages",19762
"Rest of Europe (non EU)",2010,"All ages",7548
"Africa",2010,"All ages",39828
"North Africa",2010,"All ages",3839
"Western Africa",2010,"All ages",13217
"Central Africa",2010,"All ages",2599
"Eastern Africa",2010,"All ages",15417
"Southern Africa",2010,"All ages",4675
"The Americas and the Caribbean",2010,"All ages",11494
"North America",2010,"All ages",4604
"Central America",2010,"All ages",343
"South America",2010,"All ages",3378
"Caribbean",2010,"All ages",3169
"Middle East and Asia",2010,"All ages",66348
"Middle East",2010,"All ages",6657
"Central Asia",2010,"All ages",296
"Eastern Asia",2010,"All ages",5931
"Southern Asia",2010,"All ages",46737
"India",2010,"All ages",13575
"Pakistan",2010,"All ages",17840
"Bangladesh",2010,"All ages",8360
"South East Asia",2010,"All ages",6650
"Antarctica and Oceania",2010,"All ages",3910
"Australasia",2010,"All ages",3660
"Other Oceania",2010,"All ages",249
"Not Stated",2010,"All ages",17
"Total",2009,"All ages",706248
"United Kingdom",2009,"All ages",532046
"Total outside United Kingdom",2009,"All ages",174174
"EU",2009,"All ages",47508
"New EU",2009,"All ages",29848
"Poland",2009,"All ages",18159
"Rest of Europe (non EU)",2009,"All ages",7308
"Africa",2009,"All ages",39419
"North Africa",2009,"All ages",3769
"Western Africa",2009,"All ages",12861
"Central Africa",2009,"All ages",2662
"Eastern Africa",2009,"All ages",15400
"Southern Africa",2009,"All ages",4654
"The Americas and the Caribbean",2009,"All ages",11296
"North America",2009,"All ages",4278
"Central America",2009,"All ages",318
"South America",2009,"All ages",3295
"Caribbean",2009,"All ages",3405
"Middle East and Asia",2009,"All ages",64974
"Middle East",2009,"All ages",6294
"Central Asia",2009,"All ages",303
"Eastern Asia",2009,"All ages",5559
"Southern Asia",2009,"All ages",46061
"India",2009,"All ages",12499
"Pakistan",2009,"All ages",18394
"Bangladesh",2009,"All ages",8452
"South East Asia",2009,"All ages",6679
"Antarctica and Oceania",2009,"All ages",3669
"Australasia",2009,"All ages",3426
"Other Oceania",2009,"All ages",243
"Not Stated",2009,"All ages",28
"Total",2008,"All ages",708711
"United Kingdom",2008,"All ages",537854
"Total outside United Kingdom",2008,"All ages",170834
"EU",2008,"All ages",43881
"New EU",2008,"All ages",26074
"Poland",2008,"All ages",16101
"Rest of Europe (non EU)",2008,"All ages",7201
"Africa",2008,"All ages",39744
"North Africa",2008,"All ages",3555
"Western Africa",2008,"All ages",12876
"Central Africa",2008,"All ages",2700
"Eastern Africa",2008,"All ages",15736
"Southern Africa",2008,"All ages",4777
"The Americas and the Caribbean",2008,"All ages",11282
"North America",2008,"All ages",4422
"Central America",2008,"All ages",327
"South America",2008,"All ages",3128
"Caribbean",2008,"All ages",3405
"Middle East and Asia",2008,"All ages",64861
"Middle East",2008,"All ages",5640
"Central Asia",2008,"All ages",305
"Eastern Asia",2008,"All ages",5399
"Southern Asia",2008,"All ages",46412
"India",2008,"All ages",12453
"Pakistan",2008,"All ages",18826
"Bangladesh",2008,"All ages",8629
"South East Asia",2008,"All ages",6982
"Antarctica and Oceania",2008,"All ages",3865
"Australasia",2008,"All ages",3612
"Other Oceania",2008,"All ages",253
"Not Stated",2008,"All ages",23
"Total",2017,"< 20",20358
"United Kingdom",2017,"< 20",17696
"Total outside United Kingdom",2017,"< 20",2658
"EU",2017,"< 20",1804
"New EU",2017,"< 20",1563
"Poland",2017,"< 20",267
"Rest of Europe (non EU)",2017,"< 20",103
"Africa",2017,"< 20",245
"North Africa",2017,"< 20",10
"Western Africa",2017,"< 20",56
"Central Africa",2017,"< 20",22
"Eastern Africa",2017,"< 20",127
"Southern Africa",2017,"< 20",29
"The Americas and the Caribbean",2017,"< 20",124
"North America",2017,"< 20",18
"Central America",2017,"< 20",3
"South America",2017,"< 20",48
"Caribbean",2017,"< 20",55
"Middle East and Asia",2017,"< 20",372
"Middle East",2017,"< 20",108
"Central Asia",2017,"< 20",1
"Eastern Asia",2017,"< 20",10
"Southern Asia",2017,"< 20",196
"India",2017,"< 20",38
"Pakistan",2017,"< 20",86
"Bangladesh",2017,"< 20",34
"South East Asia",2017,"< 20",57
"Antarctica and Oceania",2017,"< 20",10
"Australasia",2017,"< 20",9
"Other Oceania",2017,"< 20",1
"Not Stated",2017,"< 20",4
"Total",2016,"< 20",22465
"United Kingdom",2016,"< 20",19769
"Total outside United Kingdom",2016,"< 20",2695
"EU",2016,"< 20",1755
"New EU",2016,"< 20",1542
"Poland",2016,"< 20",333
"Rest of Europe (non EU)",2016,"< 20",128
"Africa",2016,"< 20",287
"North Africa",2016,"< 20",17
"Western Africa",2016,"< 20",73
"Central Africa",2016,"< 20",33
"Eastern Africa",2016,"< 20",134
"Southern Africa",2016,"< 20",29
"The Americas and the Caribbean",2016,"< 20",123
"North America",2016,"< 20",23
"Central America",2016,"< 20",0
"South America",2016,"< 20",33
"Caribbean",2016,"< 20",67
"Middle East and Asia",2016,"< 20",395
"Middle East",2016,"< 20",107
"Central Asia",2016,"< 20",3
"Eastern Asia",2016,"< 20",15
"Southern Asia",2016,"< 20",227
"India",2016,"< 20",38
"Pakistan",2016,"< 20",80
"Bangladesh",2016,"< 20",58
"South East Asia",2016,"< 20",43
"Antarctica and Oceania",2016,"< 20",7
"Australasia",2016,"< 20",7
"Other Oceania",2016,"< 20",0
"Not Stated",2016,"< 20",1
"Total",2015,"< 20",23948
"United Kingdom",2015,"< 20",21231
"Total outside United Kingdom",2015,"< 20",2717
"EU",2015,"< 20",1772
"New EU",2015,"< 20",1548
"Poland",2015,"< 20",377
"Rest of Europe (non EU)",2015,"< 20",145
"Africa",2015,"< 20",327
"North Africa",2015,"< 20",21
"Western Africa",2015,"< 20",73
"Central Africa",2015,"< 20",53
"Eastern Africa",2015,"< 20",145
"Southern Africa",2015,"< 20",35
"The Americas and the Caribbean",2015,"< 20",158
"North America",2015,"< 20",26
"Central America",2015,"< 20",3
"South America",2015,"< 20",59
"Caribbean",2015,"< 20",70
"Middle East and Asia",2015,"< 20",308
"Middle East",2015,"< 20",89
"Central Asia",2015,"< 20",4
"Eastern Asia",2015,"< 20",9
"Southern Asia",2015,"< 20",159
"India",2015,"< 20",19
"Pakistan",2015,"< 20",61
"Bangladesh",2015,"< 20",34
"South East Asia",2015,"< 20",47
"Antarctica and Oceania",2015,"< 20",7
"Australasia",2015,"< 20",7
"Other Oceania",2015,"< 20",0
"Not Stated",2015,"< 20",0
"Total",2014,"< 20",25977
"United Kingdom",2014,"< 20",23320
"Total outside United Kingdom",2014,"< 20",2656
"EU",2014,"< 20",1690
"New EU",2014,"< 20",1446
"Poland",2014,"< 20",439
"Rest of Europe (non EU)",2014,"< 20",115
"Africa",2014,"< 20",333
"North Africa",2014,"< 20",19
"Western Africa",2014,"< 20",88
"Central Africa",2014,"< 20",45
"Eastern Africa",2014,"< 20",133
"Southern Africa",2014,"< 20",45
"The Americas and the Caribbean",2014,"< 20",174
"North America",2014,"< 20",33
"Central America",2014,"< 20",5
"South America",2014,"< 20",49
"Caribbean",2014,"< 20",87
"Middle East and Asia",2014,"< 20",336
"Middle East",2014,"< 20",66
"Central Asia",2014,"< 20",0
"Eastern Asia",2014,"< 20",12
"Southern Asia",2014,"< 20",214
"India",2014,"< 20",29
"Pakistan",2014,"< 20",89
"Bangladesh",2014,"< 20",45
"South East Asia",2014,"< 20",44
"Antarctica and Oceania",2014,"< 20",8
"Australasia",2014,"< 20",7
"Other Oceania",2014,"< 20",1
"Not Stated",2014,"< 20",1
"Total",2013,"< 20",29136
"United Kingdom",2013,"< 20",26502
"Total outside United Kingdom",2013,"< 20",2630
"EU",2013,"< 20",1593
"New EU",2013,"< 20",1317
"Poland",2013,"< 20",423
"Rest of Europe (non EU)",2013,"< 20",94
"Africa",2013,"< 20",364
"North Africa",2013,"< 20",19
"Western Africa",2013,"< 20",84
"Central Africa",2013,"< 20",51
"Eastern Africa",2013,"< 20",168
"Southern Africa",2013,"< 20",42
"The Americas and the Caribbean",2013,"< 20",179
"North America",2013,"< 20",30
"Central America",2013,"< 20",0
"South America",2013,"< 20",53
"Caribbean",2013,"< 20",96
"Middle East and Asia",2013,"< 20",391
"Middle East",2013,"< 20",89
"Central Asia",2013,"< 20",2
"Eastern Asia",2013,"< 20",17
"Southern Asia",2013,"< 20",215
"India",2013,"< 20",28
"Pakistan",2013,"< 20",86
"Bangladesh",2013,"< 20",57
"South East Asia",2013,"< 20",68
"Antarctica and Oceania",2013,"< 20",9
"Australasia",2013,"< 20",8
"Other Oceania",2013,"< 20",1
"Not Stated",2013,"< 20",4
"Total",2012,"< 20",33815
"United Kingdom",2012,"< 20",31176
"Total outside United Kingdom",2012,"< 20",2635
"EU",2012,"< 20",1522
"New EU",2012,"< 20",1217
"Poland",2012,"< 20",404
"Rest of Europe (non EU)",2012,"< 20",84
"Africa",2012,"< 20",396
"North Africa",2012,"< 20",19
"Western Africa",2012,"< 20",79
"Central Africa",2012,"< 20",67
"Eastern Africa",2012,"< 20",186
"Southern Africa",2012,"< 20",42
"The Americas and the Caribbean",2012,"< 20",202
"North America",2012,"< 20",34
"Central America",2012,"< 20",4
"South America",2012,"< 20",56
"Caribbean",2012,"< 20",108
"Middle East and Asia",2012,"< 20",409
"Middle East",2012,"< 20",88
"Central Asia",2012,"< 20",1
"Eastern Asia",2012,"< 20",37
"Southern Asia",2012,"< 20",218
"India",2012,"< 20",18
"Pakistan",2012,"< 20",95
"Bangladesh",2012,"< 20",55
"South East Asia",2012,"< 20",65
"Antarctica and Oceania",2012,"< 20",22
"Australasia",2012,"< 20",21
"Other Oceania",2012,"< 20",1
"Not Stated",2012,"< 20",4
"Total",2011,"< 20",36435
"United Kingdom",2011,"< 20",33778
"Total outside United Kingdom",2011,"< 20",2653
"EU",2011,"< 20",1386
"New EU",2011,"< 20",1036
"Poland",2011,"< 20",340
"Rest of Europe (non EU)",2011,"< 20",76
"Africa",2011,"< 20",498
"North Africa",2011,"< 20",28
"Western Africa",2011,"< 20",100
"Central Africa",2011,"< 20",63
"Eastern Africa",2011,"< 20",243
"Southern Africa",2011,"< 20",63
"The Americas and the Caribbean",2011,"< 20",247
"North America",2011,"< 20",46
"Central America",2011,"< 20",5
"South America",2011,"< 20",49
"Caribbean",2011,"< 20",147
"Middle East and Asia",2011,"< 20",434
"Middle East",2011,"< 20",86
"Central Asia",2011,"< 20",3
"Eastern Asia",2011,"< 20",57
"Southern Asia",2011,"< 20",227
"India",2011,"< 20",35
"Pakistan",2011,"< 20",77
"Bangladesh",2011,"< 20",66
"South East Asia",2011,"< 20",61
"Antarctica and Oceania",2011,"< 20",12
"Australasia",2011,"< 20",11
"Other Oceania",2011,"< 20",1
"Not Stated",2011,"< 20",4
"Total",2010,"< 20",40591
"United Kingdom",2010,"< 20",37587
"Total outside United Kingdom",2010,"< 20",3003
"EU",2010,"< 20",1497
"New EU",2010,"< 20",1090
"Poland",2010,"< 20",376
"Rest of Europe (non EU)",2010,"< 20",108
"Africa",2010,"< 20",643
"North Africa",2010,"< 20",31
"Western Africa",2010,"< 20",125
"Central Africa",2010,"< 20",101
"Eastern Africa",2010,"< 20",308
"Southern Africa",2010,"< 20",75
"The Americas and the Caribbean",2010,"< 20",245
"North America",2010,"< 20",51
"Central America",2010,"< 20",2
"South America",2010,"< 20",62
"Caribbean",2010,"< 20",130
"Middle East and Asia",2010,"< 20",491
"Middle East",2010,"< 20",99
"Central Asia",2010,"< 20",1
"Eastern Asia",2010,"< 20",90
"Southern Asia",2010,"< 20",253
"India",2010,"< 20",40
"Pakistan",2010,"< 20",98
"Bangladesh",2010,"< 20",59
"South East Asia",2010,"< 20",47
"Antarctica and Oceania",2010,"< 20",19
"Australasia",2010,"< 20",16
"Other Oceania",2010,"< 20",3
"Not Stated",2010,"< 20",1
"Total",2009,"< 20",43243
"United Kingdom",2009,"< 20",39750
"Total outside United Kingdom",2009,"< 20",3492
"EU",2009,"< 20",1387
"New EU",2009,"< 20",969
"Poland",2009,"< 20",337
"Rest of Europe (non EU)",2009,"< 20",153
"Africa",2009,"< 20",754
"North Africa",2009,"< 20",30
"Western Africa",2009,"< 20",191
"Central Africa",2009,"< 20",120
"Eastern Africa",2009,"< 20",337
"Southern Africa",2009,"< 20",71
"The Americas and the Caribbean",2009,"< 20",306
"North America",2009,"< 20",55
"Central America",2009,"< 20",3
"South America",2009,"< 20",72
"Caribbean",2009,"< 20",176
"Middle East and Asia",2009,"< 20",865
"Middle East",2009,"< 20",138
"Central Asia",2009,"< 20",7
"Eastern Asia",2009,"< 20",122
"Southern Asia",2009,"< 20",542
"India",2009,"< 20",66
"Pakistan",2009,"< 20",253
"Bangladesh",2009,"< 20",143
"South East Asia",2009,"< 20",56
"Antarctica and Oceania",2009,"< 20",27
"Australasia",2009,"< 20",24
"Other Oceania",2009,"< 20",3
"Not Stated",2009,"< 20",1
"Total",2008,"< 20",44691
"United Kingdom",2008,"< 20",40826
"Total outside United Kingdom",2008,"< 20",3865
"EU",2008,"< 20",1283
"New EU",2008,"< 20",891
"Poland",2008,"< 20",408
"Rest of Europe (non EU)",2008,"< 20",164
"Africa",2008,"< 20",933
"North Africa",2008,"< 20",39
"Western Africa",2008,"< 20",236
"Central Africa",2008,"< 20",161
"Eastern Africa",2008,"< 20",419
"Southern Africa",2008,"< 20",73
"The Americas and the Caribbean",2008,"< 20",343
"North America",2008,"< 20",63
"Central America",2008,"< 20",3
"South America",2008,"< 20",74
"Caribbean",2008,"< 20",203
"Middle East and Asia",2008,"< 20",1125
"Middle East",2008,"< 20",161
"Central Asia",2008,"< 20",3
"Eastern Asia",2008,"< 20",128
"Southern Asia",2008,"< 20",755
"India",2008,"< 20",74
"Pakistan",2008,"< 20",372
"Bangladesh",2008,"< 20",188
"South East Asia",2008,"< 20",78
"Antarctica and Oceania",2008,"< 20",17
"Australasia",2008,"< 20",14
"Other Oceania",2008,"< 20",3
"Not Stated",2008,"< 20",0
"Total",2017,"20 to 24",97506
"United Kingdom",2017,"20 to 24",78461
"Total outside United Kingdom",2017,"20 to 24",19038
"EU",2017,"20 to 24",8901
"New EU",2017,"20 to 24",7462
"Poland",2017,"20 to 24",2391
"Rest of Europe (non EU)",2017,"20 to 24",1368
"Africa",2017,"20 to 24",2443
"North Africa",2017,"20 to 24",337
"Western Africa",2017,"20 to 24",617
"Central Africa",2017,"20 to 24",218
"Eastern Africa",2017,"20 to 24",1108
"Southern Africa",2017,"20 to 24",158
"The Americas and the Caribbean",2017,"20 to 24",843
"North America",2017,"20 to 24",249
"Central America",2017,"20 to 24",16
"South America",2017,"20 to 24",283
"Caribbean",2017,"20 to 24",295
"Middle East and Asia",2017,"20 to 24",5426
"Middle East",2017,"20 to 24",924
"Central Asia",2017,"20 to 24",25
"Eastern Asia",2017,"20 to 24",131
"Southern Asia",2017,"20 to 24",4015
"India",2017,"20 to 24",625
"Pakistan",2017,"20 to 24",1821
"Bangladesh",2017,"20 to 24",852
"South East Asia",2017,"20 to 24",331
"Antarctica and Oceania",2017,"20 to 24",57
"Australasia",2017,"20 to 24",48
"Other Oceania",2017,"20 to 24",9
"Not Stated",2017,"20 to 24",7
"Total",2016,"20 to 24",102607
"United Kingdom",2016,"20 to 24",83022
"Total outside United Kingdom",2016,"20 to 24",19580
"EU",2016,"20 to 24",9257
"New EU",2016,"20 to 24",7726
"Poland",2016,"20 to 24",2737
"Rest of Europe (non EU)",2016,"20 to 24",1235
"Africa",2016,"20 to 24",2588
"North Africa",2016,"20 to 24",322
"Western Africa",2016,"20 to 24",700
"Central Africa",2016,"20 to 24",219
"Eastern Africa",2016,"20 to 24",1155
"Southern Africa",2016,"20 to 24",187
"The Americas and the Caribbean",2016,"20 to 24",837
"North America",2016,"20 to 24",236
"Central America",2016,"20 to 24",18
"South America",2016,"20 to 24",269
"Caribbean",2016,"20 to 24",314
"Middle East and Asia",2016,"20 to 24",5588
"Middle East",2016,"20 to 24",770
"Central Asia",2016,"20 to 24",29
"Eastern Asia",2016,"20 to 24",212
"Southern Asia",2016,"20 to 24",4205
"India",2016,"20 to 24",710
"Pakistan",2016,"20 to 24",1769
"Bangladesh",2016,"20 to 24",974
"South East Asia",2016,"20 to 24",369
"Antarctica and Oceania",2016,"20 to 24",75
"Australasia",2016,"20 to 24",59
"Other Oceania",2016,"20 to 24",16
"Not Stated",2016,"20 to 24",5
"Total",2015,"20 to 24",108111
"United Kingdom",2015,"20 to 24",88794
"Total outside United Kingdom",2015,"20 to 24",19309
"EU",2015,"20 to 24",8943
"New EU",2015,"20 to 24",7389
"Poland",2015,"20 to 24",2964
"Rest of Europe (non EU)",2015,"20 to 24",1261
"Africa",2015,"20 to 24",2626
"North Africa",2015,"20 to 24",327
"Western Africa",2015,"20 to 24",698
"Central Africa",2015,"20 to 24",261
"Eastern Africa",2015,"20 to 24",1138
"Southern Africa",2015,"20 to 24",195
"The Americas and the Caribbean",2015,"20 to 24",840
"North America",2015,"20 to 24",255
"Central America",2015,"20 to 24",15
"South America",2015,"20 to 24",232
"Caribbean",2015,"20 to 24",338
"Middle East and Asia",2015,"20 to 24",5584
"Middle East",2015,"20 to 24",767
"Central Asia",2015,"20 to 24",30
"Eastern Asia",2015,"20 to 24",284
"Southern Asia",2015,"20 to 24",4167
"India",2015,"20 to 24",828
"Pakistan",2015,"20 to 24",1779
"Bangladesh",2015,"20 to 24",829
"South East Asia",2015,"20 to 24",333
"Antarctica and Oceania",2015,"20 to 24",55
"Australasia",2015,"20 to 24",48
"Other Oceania",2015,"20 to 24",7
"Not Stated",2015,"20 to 24",8
"Total",2014,"20 to 24",112615
"United Kingdom",2014,"20 to 24",93144
"Total outside United Kingdom",2014,"20 to 24",19464
"EU",2014,"20 to 24",8281
"New EU",2014,"20 to 24",6669
"Poland",2014,"20 to 24",2719
"Rest of Europe (non EU)",2014,"20 to 24",1116
"Africa",2014,"20 to 24",2930
"North Africa",2014,"20 to 24",355
"Western Africa",2014,"20 to 24",803
"Central Africa",2014,"20 to 24",306
"Eastern Africa",2014,"20 to 24",1271
"Southern Africa",2014,"20 to 24",190
"The Americas and the Caribbean",2014,"20 to 24",886
"North America",2014,"20 to 24",291
"Central America",2014,"20 to 24",16
"South America",2014,"20 to 24",245
"Caribbean",2014,"20 to 24",334
"Middle East and Asia",2014,"20 to 24",6169
"Middle East",2014,"20 to 24",769
"Central Asia",2014,"20 to 24",40
"Eastern Asia",2014,"20 to 24",365
"Southern Asia",2014,"20 to 24",4660
"India",2014,"20 to 24",856
"Pakistan",2014,"20 to 24",2102
"Bangladesh",2014,"20 to 24",942
"South East Asia",2014,"20 to 24",332
"Antarctica and Oceania",2014,"20 to 24",82
"Australasia",2014,"20 to 24",68
"Other Oceania",2014,"20 to 24",14
"Not Stated",2014,"20 to 24",7
"Total",2013,"20 to 24",119719
"United Kingdom",2013,"20 to 24",98795
"Total outside United Kingdom",2013,"20 to 24",20918
"EU",2013,"20 to 24",8080
"New EU",2013,"20 to 24",6555
"Poland",2013,"20 to 24",2591
"Rest of Europe (non EU)",2013,"20 to 24",1064
"Africa",2013,"20 to 24",3214
"North Africa",2013,"20 to 24",354
"Western Africa",2013,"20 to 24",910
"Central Africa",2013,"20 to 24",307
"Eastern Africa",2013,"20 to 24",1427
"Southern Africa",2013,"20 to 24",209
"The Americas and the Caribbean",2013,"20 to 24",909
"North America",2013,"20 to 24",274
"Central America",2013,"20 to 24",18
"South America",2013,"20 to 24",238
"Caribbean",2013,"20 to 24",379
"Middle East and Asia",2013,"20 to 24",7557
"Middle East",2013,"20 to 24",805
"Central Asia",2013,"20 to 24",31
"Eastern Asia",2013,"20 to 24",451
"Southern Asia",2013,"20 to 24",5930
"India",2013,"20 to 24",1072
"Pakistan",2013,"20 to 24",2710
"Bangladesh",2013,"20 to 24",1274
"South East Asia",2013,"20 to 24",337
"Antarctica and Oceania",2013,"20 to 24",94
"Australasia",2013,"20 to 24",72
"Other Oceania",2013,"20 to 24",22
"Not Stated",2013,"20 to 24",6
"Total",2012,"20 to 24",132456
"United Kingdom",2012,"20 to 24",108870
"Total outside United Kingdom",2012,"20 to 24",23582
"EU",2012,"20 to 24",8237
"New EU",2012,"20 to 24",6663
"Poland",2012,"20 to 24",2766
"Rest of Europe (non EU)",2012,"20 to 24",1090
"Africa",2012,"20 to 24",3900
"North Africa",2012,"20 to 24",348
"Western Africa",2012,"20 to 24",1131
"Central Africa",2012,"20 to 24",399
"Eastern Africa",2012,"20 to 24",1746
"Southern Africa",2012,"20 to 24",265
"The Americas and the Caribbean",2012,"20 to 24",979
"North America",2012,"20 to 24",328
"Central America",2012,"20 to 24",21
"South America",2012,"20 to 24",257
"Caribbean",2012,"20 to 24",373
"Middle East and Asia",2012,"20 to 24",9273
"Middle East",2012,"20 to 24",907
"Central Asia",2012,"20 to 24",35
"Eastern Asia",2012,"20 to 24",625
"Southern Asia",2012,"20 to 24",7306
"India",2012,"20 to 24",1458
"Pakistan",2012,"20 to 24",3260
"Bangladesh",2012,"20 to 24",1498
"South East Asia",2012,"20 to 24",398
"Antarctica and Oceania",2012,"20 to 24",103
"Australasia",2012,"20 to 24",82
"Other Oceania",2012,"20 to 24",21
"Not Stated",2012,"20 to 24",4
"Total",2011,"20 to 24",134946
"United Kingdom",2011,"20 to 24",110067
"Total outside United Kingdom",2011,"20 to 24",24878
"EU",2011,"20 to 24",7943
"New EU",2011,"20 to 24",6396
"Poland",2011,"20 to 24",3017
"Rest of Europe (non EU)",2011,"20 to 24",1063
"Africa",2011,"20 to 24",4263
"North Africa",2011,"20 to 24",398
"Western Africa",2011,"20 to 24",1210
"Central Africa",2011,"20 to 24",424
"Eastern Africa",2011,"20 to 24",1940
"Southern Africa",2011,"20 to 24",279
"The Americas and the Caribbean",2011,"20 to 24",1110
"North America",2011,"20 to 24",365
"Central America",2011,"20 to 24",29
"South America",2011,"20 to 24",263
"Caribbean",2011,"20 to 24",453
"Middle East and Asia",2011,"20 to 24",10395
"Middle East",2011,"20 to 24",1132
"Central Asia",2011,"20 to 24",36
"Eastern Asia",2011,"20 to 24",646
"Southern Asia",2011,"20 to 24",8148
"India",2011,"20 to 24",1737
"Pakistan",2011,"20 to 24",3538
"Bangladesh",2011,"20 to 24",1626
"South East Asia",2011,"20 to 24",431
"Antarctica and Oceania",2011,"20 to 24",104
"Australasia",2011,"20 to 24",74
"Other Oceania",2011,"20 to 24",30
"Not Stated",2011,"20 to 24",1
"Total",2010,"20 to 24",137312
"United Kingdom",2010,"20 to 24",111214
"Total outside United Kingdom",2010,"20 to 24",26095
"EU",2010,"20 to 24",7972
"New EU",2010,"20 to 24",6293
"Poland",2010,"20 to 24",3388
"Rest of Europe (non EU)",2010,"20 to 24",1143
"Africa",2010,"20 to 24",4833
"North Africa",2010,"20 to 24",507
"Western Africa",2010,"20 to 24",1392
"Central Africa",2010,"20 to 24",495
"Eastern Africa",2010,"20 to 24",2148
"Southern Africa",2010,"20 to 24",281
"The Americas and the Caribbean",2010,"20 to 24",1113
"North America",2010,"20 to 24",351
"Central America",2010,"20 to 24",16
"South America",2010,"20 to 24",283
"Caribbean",2010,"20 to 24",463
"Middle East and Asia",2010,"20 to 24",10912
"Middle East",2010,"20 to 24",1288
"Central Asia",2010,"20 to 24",42
"Eastern Asia",2010,"20 to 24",643
"Southern Asia",2010,"20 to 24",8470
"India",2010,"20 to 24",1525
"Pakistan",2010,"20 to 24",3756
"Bangladesh",2010,"20 to 24",1829
"South East Asia",2010,"20 to 24",463
"Antarctica and Oceania",2010,"20 to 24",122
"Australasia",2010,"20 to 24",90
"Other Oceania",2010,"20 to 24",32
"Not Stated",2010,"20 to 24",3
"Total",2009,"20 to 24",136012
"United Kingdom",2009,"20 to 24",108998
"Total outside United Kingdom",2009,"20 to 24",27008
"EU",2009,"20 to 24",7713
"New EU",2009,"20 to 24",6071
"Poland",2009,"20 to 24",3713
"Rest of Europe (non EU)",2009,"20 to 24",1190
"Africa",2009,"20 to 24",5011
"North Africa",2009,"20 to 24",502
"Western Africa",2009,"20 to 24",1369
"Central Africa",2009,"20 to 24",539
"Eastern Africa",2009,"20 to 24",2263
"Southern Africa",2009,"20 to 24",327
"The Americas and the Caribbean",2009,"20 to 24",1213
"North America",2009,"20 to 24",328
"Central America",2009,"20 to 24",22
"South America",2009,"20 to 24",332
"Caribbean",2009,"20 to 24",531
"Middle East and Asia",2009,"20 to 24",11779
"Middle East",2009,"20 to 24",1321
"Central Asia",2009,"20 to 24",56
"Eastern Asia",2009,"20 to 24",653
"Southern Asia",2009,"20 to 24",9278
"India",2009,"20 to 24",1494
"Pakistan",2009,"20 to 24",4252
"Bangladesh",2009,"20 to 24",2125
"South East Asia",2009,"20 to 24",464
"Antarctica and Oceania",2009,"20 to 24",102
"Australasia",2009,"20 to 24",68
"Other Oceania",2009,"20 to 24",34
"Not Stated",2009,"20 to 24",6
"Total",2008,"20 to 24",135971
"United Kingdom",2008,"20 to 24",107672
"Total outside United Kingdom",2008,"20 to 24",28293
"EU",2008,"20 to 24",7760
"New EU",2008,"20 to 24",6028
"Poland",2008,"20 to 24",3965
"Rest of Europe (non EU)",2008,"20 to 24",1329
"Africa",2008,"20 to 24",5259
"North Africa",2008,"20 to 24",526
"Western Africa",2008,"20 to 24",1439
"Central Africa",2008,"20 to 24",508
"Eastern Africa",2008,"20 to 24",2370
"Southern Africa",2008,"20 to 24",396
"The Americas and the Caribbean",2008,"20 to 24",1386
"North America",2008,"20 to 24",408
"Central America",2008,"20 to 24",31
"South America",2008,"20 to 24",361
"Caribbean",2008,"20 to 24",586
"Middle East and Asia",2008,"20 to 24",12423
"Middle East",2008,"20 to 24",1146
"Central Asia",2008,"20 to 24",72
"Eastern Asia",2008,"20 to 24",622
"Southern Asia",2008,"20 to 24",10100
"India",2008,"20 to 24",1674
"Pakistan",2008,"20 to 24",4666
"Bangladesh",2008,"20 to 24",2300
"South East Asia",2008,"20 to 24",474
"Antarctica and Oceania",2008,"20 to 24",136
"Australasia",2008,"20 to 24",97
"Other Oceania",2008,"20 to 24",39
"Not Stated",2008,"20 to 24",6
"Total",2017,"25 to 29",190028
"United Kingdom",2017,"25 to 29",139989
"Total outside United Kingdom",2017,"25 to 29",50032
"EU",2017,"25 to 29",19031
"New EU",2017,"25 to 29",15392
"Poland",2017,"25 to 29",5385
"Rest of Europe (non EU)",2017,"25 to 29",3043
"Africa",2017,"25 to 29",7694
"North Africa",2017,"25 to 29",979
"Western Africa",2017,"25 to 29",2495
"Central Africa",2017,"25 to 29",626
"Eastern Africa",2017,"25 to 29",3039
"Southern Africa",2017,"25 to 29",542
"The Americas and the Caribbean",2017,"25 to 29",1953
"North America",2017,"25 to 29",755
"Central America",2017,"25 to 29",62
"South America",2017,"25 to 29",641
"Caribbean",2017,"25 to 29",495
"Middle East and Asia",2017,"25 to 29",18028
"Middle East",2017,"25 to 29",2158
"Central Asia",2017,"25 to 29",93
"Eastern Asia",2017,"25 to 29",1167
"Southern Asia",2017,"25 to 29",13582
"India",2017,"25 to 29",3592
"Pakistan",2017,"25 to 29",5559
"Bangladesh",2017,"25 to 29",2306
"South East Asia",2017,"25 to 29",1019
"Antarctica and Oceania",2017,"25 to 29",283
"Australasia",2017,"25 to 29",253
"Other Oceania",2017,"25 to 29",30
"Not Stated",2017,"25 to 29",7
"Total",2016,"25 to 29",196132
"United Kingdom",2016,"25 to 29",143606
"Total outside United Kingdom",2016,"25 to 29",52514
"EU",2016,"25 to 29",19373
"New EU",2016,"25 to 29",15711
"Poland",2016,"25 to 29",6187
"Rest of Europe (non EU)",2016,"25 to 29",2928
"Africa",2016,"25 to 29",8366
"North Africa",2016,"25 to 29",1037
"Western Africa",2016,"25 to 29",2844
"Central Africa",2016,"25 to 29",690
"Eastern Africa",2016,"25 to 29",3253
"Southern Africa",2016,"25 to 29",534
"The Americas and the Caribbean",2016,"25 to 29",1986
"North America",2016,"25 to 29",786
"Central America",2016,"25 to 29",71
"South America",2016,"25 to 29",601
"Caribbean",2016,"25 to 29",528
"Middle East and Asia",2016,"25 to 29",19531
"Middle East",2016,"25 to 29",2181
"Central Asia",2016,"25 to 29",82
"Eastern Asia",2016,"25 to 29",1280
"Southern Asia",2016,"25 to 29",14933
"India",2016,"25 to 29",4033
"Pakistan",2016,"25 to 29",5994
"Bangladesh",2016,"25 to 29",2627
"South East Asia",2016,"25 to 29",1042
"Antarctica and Oceania",2016,"25 to 29",330
"Australasia",2016,"25 to 29",284
"Other Oceania",2016,"25 to 29",46
"Not Stated",2016,"25 to 29",12
"Total",2015,"25 to 29",198183
"United Kingdom",2015,"25 to 29",144366
"Total outside United Kingdom",2015,"25 to 29",53807
"EU",2015,"25 to 29",19068
"New EU",2015,"25 to 29",15431
"Poland",2015,"25 to 29",6760
"Rest of Europe (non EU)",2015,"25 to 29",2641
"Africa",2015,"25 to 29",9016
"North Africa",2015,"25 to 29",1133
"Western Africa",2015,"25 to 29",3161
"Central Africa",2015,"25 to 29",721
"Eastern Africa",2015,"25 to 29",3368
"Southern Africa",2015,"25 to 29",617
"The Americas and the Caribbean",2015,"25 to 29",2127
"North America",2015,"25 to 29",831
"Central America",2015,"25 to 29",68
"South America",2015,"25 to 29",612
"Caribbean",2015,"25 to 29",616
"Middle East and Asia",2015,"25 to 29",20634
"Middle East",2015,"25 to 29",2210
"Central Asia",2015,"25 to 29",104
"Eastern Asia",2015,"25 to 29",1223
"Southern Asia",2015,"25 to 29",15970
"India",2015,"25 to 29",4300
"Pakistan",2015,"25 to 29",6490
"Bangladesh",2015,"25 to 29",2848
"South East Asia",2015,"25 to 29",1120
"Antarctica and Oceania",2015,"25 to 29",321
"Australasia",2015,"25 to 29",268
"Other Oceania",2015,"25 to 29",53
"Not Stated",2015,"25 to 29",10
"Total",2014,"25 to 29",196818
"United Kingdom",2014,"25 to 29",142835
"Total outside United Kingdom",2014,"25 to 29",53974
"EU",2014,"25 to 29",18131
"New EU",2014,"25 to 29",14672
"Poland",2014,"25 to 29",7148
"Rest of Europe (non EU)",2014,"25 to 29",2539
"Africa",2014,"25 to 29",9225
"North Africa",2014,"25 to 29",1081
"Western Africa",2014,"25 to 29",3429
"Central Africa",2014,"25 to 29",657
"Eastern Africa",2014,"25 to 29",3387
"Southern Africa",2014,"25 to 29",663
"The Americas and the Caribbean",2014,"25 to 29",2092
"North America",2014,"25 to 29",856
"Central America",2014,"25 to 29",65
"South America",2014,"25 to 29",563
"Caribbean",2014,"25 to 29",608
"Middle East and Asia",2014,"25 to 29",21702
"Middle East",2014,"25 to 29",2249
"Central Asia",2014,"25 to 29",121
"Eastern Asia",2014,"25 to 29",1398
"Southern Asia",2014,"25 to 29",16731
"India",2014,"25 to 29",4611
"Pakistan",2014,"25 to 29",6725
"Bangladesh",2014,"25 to 29",2864
"South East Asia",2014,"25 to 29",1188
"Antarctica and Oceania",2014,"25 to 29",285
"Australasia",2014,"25 to 29",244
"Other Oceania",2014,"25 to 29",41
"Not Stated",2014,"25 to 29",9
"Total",2013,"25 to 29",196693
"United Kingdom",2013,"25 to 29",141870
"Total outside United Kingdom",2013,"25 to 29",54816
"EU",2013,"25 to 29",17877
"New EU",2013,"25 to 29",14569
"Poland",2013,"25 to 29",7649
"Rest of Europe (non EU)",2013,"25 to 29",2393
"Africa",2013,"25 to 29",9711
"North Africa",2013,"25 to 29",995
"Western Africa",2013,"25 to 29",3597
"Central Africa",2013,"25 to 29",659
"Eastern Africa",2013,"25 to 29",3665
"Southern Africa",2013,"25 to 29",782
"The Americas and the Caribbean",2013,"25 to 29",2122
"North America",2013,"25 to 29",851
"Central America",2013,"25 to 29",70
"South America",2013,"25 to 29",541
"Caribbean",2013,"25 to 29",660
"Middle East and Asia",2013,"25 to 29",22355
"Middle East",2013,"25 to 29",2238
"Central Asia",2013,"25 to 29",110
"Eastern Asia",2013,"25 to 29",1261
"Southern Asia",2013,"25 to 29",17552
"India",2013,"25 to 29",4941
"Pakistan",2013,"25 to 29",7011
"Bangladesh",2013,"25 to 29",2954
"South East Asia",2013,"25 to 29",1184
"Antarctica and Oceania",2013,"25 to 29",358
"Australasia",2013,"25 to 29",294
"Other Oceania",2013,"25 to 29",64
"Not Stated",2013,"25 to 29",7
"Total",2012,"25 to 29",202370
"United Kingdom",2012,"25 to 29",145439
"Total outside United Kingdom",2012,"25 to 29",56924
"EU",2012,"25 to 29",18298
"New EU",2012,"25 to 29",14881
"Poland",2012,"25 to 29",8392
"Rest of Europe (non EU)",2012,"25 to 29",2279
"Africa",2012,"25 to 29",10205
"North Africa",2012,"25 to 29",1013
"Western Africa",2012,"25 to 29",3814
"Central Africa",2012,"25 to 29",621
"Eastern Africa",2012,"25 to 29",3776
"Southern Africa",2012,"25 to 29",964
"The Americas and the Caribbean",2012,"25 to 29",2364
"North America",2012,"25 to 29",912
"Central America",2012,"25 to 29",72
"South America",2012,"25 to 29",612
"Caribbean",2012,"25 to 29",768
"Middle East and Asia",2012,"25 to 29",23379
"Middle East",2012,"25 to 29",2286
"Central Asia",2012,"25 to 29",127
"Eastern Asia",2012,"25 to 29",1641
"Southern Asia",2012,"25 to 29",17983
"India",2012,"25 to 29",5336
"Pakistan",2012,"25 to 29",7111
"Bangladesh",2012,"25 to 29",2856
"South East Asia",2012,"25 to 29",1328
"Antarctica and Oceania",2012,"25 to 29",399
"Australasia",2012,"25 to 29",330
"Other Oceania",2012,"25 to 29",68
"Not Stated",2012,"25 to 29",7
"Total",2011,"25 to 29",200587
"United Kingdom",2011,"25 to 29",143719
"Total outside United Kingdom",2011,"25 to 29",56862
"EU",2011,"25 to 29",17839
"New EU",2011,"25 to 29",14296
"Poland",2011,"25 to 29",8748
"Rest of Europe (non EU)",2011,"25 to 29",2257
"Africa",2011,"25 to 29",10643
"North Africa",2011,"25 to 29",1081
"Western Africa",2011,"25 to 29",3828
"Central Africa",2011,"25 to 29",603
"Eastern Africa",2011,"25 to 29",4039
"Southern Africa",2011,"25 to 29",1072
"The Americas and the Caribbean",2011,"25 to 29",2486
"North America",2011,"25 to 29",921
"Central America",2011,"25 to 29",74
"South America",2011,"25 to 29",715
"Caribbean",2011,"25 to 29",776
"Middle East and Asia",2011,"25 to 29",23189
"Middle East",2011,"25 to 29",2187
"Central Asia",2011,"25 to 29",119
"Eastern Asia",2011,"25 to 29",1584
"Southern Asia",2011,"25 to 29",17952
"India",2011,"25 to 29",5544
"Pakistan",2011,"25 to 29",6854
"Bangladesh",2011,"25 to 29",2980
"South East Asia",2011,"25 to 29",1336
"Antarctica and Oceania",2011,"25 to 29",448
"Australasia",2011,"25 to 29",355
"Other Oceania",2011,"25 to 29",92
"Not Stated",2011,"25 to 29",6
"Total",2010,"25 to 29",199233
"United Kingdom",2010,"25 to 29",143047
"Total outside United Kingdom",2010,"25 to 29",56183
"EU",2010,"25 to 29",17510
"New EU",2010,"25 to 29",13836
"Poland",2010,"25 to 29",8860
"Rest of Europe (non EU)",2010,"25 to 29",2297
"Africa",2010,"25 to 29",11103
"North Africa",2010,"25 to 29",1225
"Western Africa",2010,"25 to 29",3902
"Central Africa",2010,"25 to 29",640
"Eastern Africa",2010,"25 to 29",4158
"Southern Africa",2010,"25 to 29",1164
"The Americas and the Caribbean",2010,"25 to 29",2582
"North America",2010,"25 to 29",1031
"Central America",2010,"25 to 29",63
"South America",2010,"25 to 29",712
"Caribbean",2010,"25 to 29",776
"Middle East and Asia",2010,"25 to 29",22182
"Middle East",2010,"25 to 29",2265
"Central Asia",2010,"25 to 29",97
"Eastern Asia",2010,"25 to 29",1584
"Southern Asia",2010,"25 to 29",16950
"India",2010,"25 to 29",4982
"Pakistan",2010,"25 to 29",6453
"Bangladesh",2010,"25 to 29",3089
"South East Asia",2010,"25 to 29",1272
"Antarctica and Oceania",2010,"25 to 29",509
"Australasia",2010,"25 to 29",408
"Other Oceania",2010,"25 to 29",101
"Not Stated",2010,"25 to 29",3
"Total",2009,"25 to 29",194129
"United Kingdom",2009,"25 to 29",139849
"Total outside United Kingdom",2009,"25 to 29",54271
"EU",2009,"25 to 29",16074
"New EU",2009,"25 to 29",12368
"Poland",2009,"25 to 29",8375
"Rest of Europe (non EU)",2009,"25 to 29",2274
"Africa",2009,"25 to 29",11018
"North Africa",2009,"25 to 29",1189
"Western Africa",2009,"25 to 29",3844
"Central Africa",2009,"25 to 29",652
"Eastern Africa",2009,"25 to 29",4188
"Southern Africa",2009,"25 to 29",1123
"The Americas and the Caribbean",2009,"25 to 29",2635
"North America",2009,"25 to 29",946
"Central America",2009,"25 to 29",55
"South America",2009,"25 to 29",743
"Caribbean",2009,"25 to 29",891
"Middle East and Asia",2009,"25 to 29",21693
"Middle East",2009,"25 to 29",2072
"Central Asia",2009,"25 to 29",112
"Eastern Asia",2009,"25 to 29",1548
"Southern Asia",2009,"25 to 29",16656
"India",2009,"25 to 29",4653
"Pakistan",2009,"25 to 29",6658
"Bangladesh",2009,"25 to 29",2961
"South East Asia",2009,"25 to 29",1289
"Antarctica and Oceania",2009,"25 to 29",577
"Australasia",2009,"25 to 29",469
"Other Oceania",2009,"25 to 29",108
"Not Stated",2009,"25 to 29",9
"Total",2008,"25 to 29",192960
"United Kingdom",2008,"25 to 29",139790
"Total outside United Kingdom",2008,"25 to 29",53168
"EU",2008,"25 to 29",14453
"New EU",2008,"25 to 29",10733
"Poland",2008,"25 to 29",7209
"Rest of Europe (non EU)",2008,"25 to 29",2215
"Africa",2008,"25 to 29",11324
"North Africa",2008,"25 to 29",1119
"Western Africa",2008,"25 to 29",3981
"Central Africa",2008,"25 to 29",728
"Eastern Africa",2008,"25 to 29",4330
"Southern Africa",2008,"25 to 29",1141
"The Americas and the Caribbean",2008,"25 to 29",2631
"North America",2008,"25 to 29",928
"Central America",2008,"25 to 29",69
"South America",2008,"25 to 29",739
"Caribbean",2008,"25 to 29",895
"Middle East and Asia",2008,"25 to 29",21994
"Middle East",2008,"25 to 29",1783
"Central Asia",2008,"25 to 29",110
"Eastern Asia",2008,"25 to 29",1498
"Southern Asia",2008,"25 to 29",17166
"India",2008,"25 to 29",4822
"Pakistan",2008,"25 to 29",6947
"Bangladesh",2008,"25 to 29",3093
"South East Asia",2008,"25 to 29",1411
"Antarctica and Oceania",2008,"25 to 29",551
"Australasia",2008,"25 to 29",463
"Other Oceania",2008,"25 to 29",88
"Not Stated",2008,"25 to 29",2
"Total",2017,"30 to 34",216787
"United Kingdom",2017,"30 to 34",149681
"Total outside United Kingdom",2017,"30 to 34",67094
"EU",2017,"30 to 34",23916
"New EU",2017,"30 to 34",17074
"Poland",2017,"30 to 34",7884
"Rest of Europe (non EU)",2017,"30 to 34",3366
"Africa",2017,"30 to 34",11471
"North Africa",2017,"30 to 34",1333
"Western Africa",2017,"30 to 34",4215
"Central Africa",2017,"30 to 34",696
"Eastern Africa",2017,"30 to 34",3842
"Southern Africa",2017,"30 to 34",1369
"The Americas and the Caribbean",2017,"30 to 34",3840
"North America",2017,"30 to 34",1727
"Central America",2017,"30 to 34",154
"South America",2017,"30 to 34",1221
"Caribbean",2017,"30 to 34",738
"Middle East and Asia",2017,"30 to 34",23549
"Middle East",2017,"30 to 34",2891
"Central Asia",2017,"30 to 34",140
"Eastern Asia",2017,"30 to 34",2006
"Southern Asia",2017,"30 to 34",16735
"India",2017,"30 to 34",5867
"Pakistan",2017,"30 to 34",5878
"Bangladesh",2017,"30 to 34",2502
"South East Asia",2017,"30 to 34",1762
"Antarctica and Oceania",2017,"30 to 34",952
"Australasia",2017,"30 to 34",862
"Other Oceania",2017,"30 to 34",90
"Not Stated",2017,"30 to 34",12
"Total",2016,"30 to 34",220129
"United Kingdom",2016,"30 to 34",151369
"Total outside United Kingdom",2016,"30 to 34",68751
"EU",2016,"30 to 34",24383
"New EU",2016,"30 to 34",17355
"Poland",2016,"30 to 34",8638
"Rest of Europe (non EU)",2016,"30 to 34",3248
"Africa",2016,"30 to 34",12096
"North Africa",2016,"30 to 34",1372
"Western Africa",2016,"30 to 34",4546
"Central Africa",2016,"30 to 34",670
"Eastern Africa",2016,"30 to 34",3948
"Southern Africa",2016,"30 to 34",1543
"The Americas and the Caribbean",2016,"30 to 34",4075
"North America",2016,"30 to 34",1831
"Central America",2016,"30 to 34",144
"South America",2016,"30 to 34",1283
"Caribbean",2016,"30 to 34",817
"Middle East and Asia",2016,"30 to 34",23938
"Middle East",2016,"30 to 34",2768
"Central Asia",2016,"30 to 34",152
"Eastern Asia",2016,"30 to 34",2371
"Southern Asia",2016,"30 to 34",16814
"India",2016,"30 to 34",5897
"Pakistan",2016,"30 to 34",5776
"Bangladesh",2016,"30 to 34",2688
"South East Asia",2016,"30 to 34",1807
"Antarctica and Oceania",2016,"30 to 34",1011
"Australasia",2016,"30 to 34",915
"Other Oceania",2016,"30 to 34",96
"Not Stated",2016,"30 to 34",9
"Total",2015,"30 to 34",217755
"United Kingdom",2015,"30 to 34",151169
"Total outside United Kingdom",2015,"30 to 34",66574
"EU",2015,"30 to 34",23764
"New EU",2015,"30 to 34",16773
"Poland",2015,"30 to 34",8860
"Rest of Europe (non EU)",2015,"30 to 34",2988
"Africa",2015,"30 to 34",12042
"North Africa",2015,"30 to 34",1254
"Western Africa",2015,"30 to 34",4622
"Central Africa",2015,"30 to 34",640
"Eastern Africa",2015,"30 to 34",3924
"Southern Africa",2015,"30 to 34",1587
"The Americas and the Caribbean",2015,"30 to 34",3914
"North America",2015,"30 to 34",1786
"Central America",2015,"30 to 34",158
"South America",2015,"30 to 34",1172
"Caribbean",2015,"30 to 34",798
"Middle East and Asia",2015,"30 to 34",22819
"Middle East",2015,"30 to 34",2513
"Central Asia",2015,"30 to 34",158
"Eastern Asia",2015,"30 to 34",2117
"Southern Asia",2015,"30 to 34",16161
"India",2015,"30 to 34",5709
"Pakistan",2015,"30 to 34",5603
"Bangladesh",2015,"30 to 34",2489
"South East Asia",2015,"30 to 34",1839
"Antarctica and Oceania",2015,"30 to 34",1047
"Australasia",2015,"30 to 34",973
"Other Oceania",2015,"30 to 34",74
"Not Stated",2015,"30 to 34",12
"Total",2014,"30 to 34",215642
"United Kingdom",2014,"30 to 34",150702
"Total outside United Kingdom",2014,"30 to 34",64931
"EU",2014,"30 to 34",22108
"New EU",2014,"30 to 34",15468
"Poland",2014,"30 to 34",8492
"Rest of Europe (non EU)",2014,"30 to 34",2744
"Africa",2014,"30 to 34",12052
"North Africa",2014,"30 to 34",1231
"Western Africa",2014,"30 to 34",4557
"Central Africa",2014,"30 to 34",654
"Eastern Africa",2014,"30 to 34",4024
"Southern Africa",2014,"30 to 34",1566
"The Americas and the Caribbean",2014,"30 to 34",3971
"North America",2014,"30 to 34",1774
"Central America",2014,"30 to 34",155
"South America",2014,"30 to 34",1208
"Caribbean",2014,"30 to 34",834
"Middle East and Asia",2014,"30 to 34",22934
"Middle East",2014,"30 to 34",2374
"Central Asia",2014,"30 to 34",125
"Eastern Asia",2014,"30 to 34",2448
"Southern Asia",2014,"30 to 34",16169
"India",2014,"30 to 34",5615
"Pakistan",2014,"30 to 34",5719
"Bangladesh",2014,"30 to 34",2480
"South East Asia",2014,"30 to 34",1786
"Antarctica and Oceania",2014,"30 to 34",1122
"Australasia",2014,"30 to 34",1017
"Other Oceania",2014,"30 to 34",105
"Not Stated",2014,"30 to 34",9
"Total",2013,"30 to 34",212306
"United Kingdom",2013,"30 to 34",149200
"Total outside United Kingdom",2013,"30 to 34",63101
"EU",2013,"30 to 34",20636
"New EU",2013,"30 to 34",14168
"Poland",2013,"30 to 34",7932
"Rest of Europe (non EU)",2013,"30 to 34",2578
"Africa",2013,"30 to 34",12526
"North Africa",2013,"30 to 34",1249
"Western Africa",2013,"30 to 34",4767
"Central Africa",2013,"30 to 34",654
"Eastern Africa",2013,"30 to 34",4168
"Southern Africa",2013,"30 to 34",1662
"The Americas and the Caribbean",2013,"30 to 34",3929
"North America",2013,"30 to 34",1707
"Central America",2013,"30 to 34",152
"South America",2013,"30 to 34",1214
"Caribbean",2013,"30 to 34",856
"Middle East and Asia",2013,"30 to 34",22259
"Middle East",2013,"30 to 34",2173
"Central Asia",2013,"30 to 34",142
"Eastern Asia",2013,"30 to 34",2234
"Southern Asia",2013,"30 to 34",15873
"India",2013,"30 to 34",5565
"Pakistan",2013,"30 to 34",5669
"Bangladesh",2013,"30 to 34",2346
"South East Asia",2013,"30 to 34",1814
"Antarctica and Oceania",2013,"30 to 34",1173
"Australasia",2013,"30 to 34",1083
"Other Oceania",2013,"30 to 34",90
"Not Stated",2013,"30 to 34",5
"Total",2012,"30 to 34",216242
"United Kingdom",2012,"30 to 34",153062
"Total outside United Kingdom",2012,"30 to 34",63176
"EU",2012,"30 to 34",19638
"New EU",2012,"30 to 34",12989
"Poland",2012,"30 to 34",7257
"Rest of Europe (non EU)",2012,"30 to 34",2610
"Africa",2012,"30 to 34",12853
"North Africa",2012,"30 to 34",1138
"Western Africa",2012,"30 to 34",4856
"Central Africa",2012,"30 to 34",625
"Eastern Africa",2012,"30 to 34",4452
"Southern Africa",2012,"30 to 34",1764
"The Americas and the Caribbean",2012,"30 to 34",3993
"North America",2012,"30 to 34",1770
"Central America",2012,"30 to 34",130
"South America",2012,"30 to 34",1177
"Caribbean",2012,"30 to 34",916
"Middle East and Asia",2012,"30 to 34",22786
"Middle East",2012,"30 to 34",2100
"Central Asia",2012,"30 to 34",115
"Eastern Asia",2012,"30 to 34",2490
"Southern Asia",2012,"30 to 34",15841
"India",2012,"30 to 34",5465
"Pakistan",2012,"30 to 34",5639
"Bangladesh",2012,"30 to 34",2457
"South East Asia",2012,"30 to 34",2194
"Antarctica and Oceania",2012,"30 to 34",1296
"Australasia",2012,"30 to 34",1213
"Other Oceania",2012,"30 to 34",82
"Not Stated",2012,"30 to 34",4
"Total",2011,"30 to 34",207151
"United Kingdom",2011,"30 to 34",147428
"Total outside United Kingdom",2011,"30 to 34",59721
"EU",2011,"30 to 34",17772
"New EU",2011,"30 to 34",11339
"Poland",2011,"30 to 34",6530
"Rest of Europe (non EU)",2011,"30 to 34",2429
"Africa",2011,"30 to 34",12818
"North Africa",2011,"30 to 34",1074
"Western Africa",2011,"30 to 34",4701
"Central Africa",2011,"30 to 34",621
"Eastern Africa",2011,"30 to 34",4519
"Southern Africa",2011,"30 to 34",1880
"The Americas and the Caribbean",2011,"30 to 34",3823
"North America",2011,"30 to 34",1601
"Central America",2011,"30 to 34",145
"South America",2011,"30 to 34",1145
"Caribbean",2011,"30 to 34",932
"Middle East and Asia",2011,"30 to 34",21453
"Middle East",2011,"30 to 34",2043
"Central Asia",2011,"30 to 34",122
"Eastern Asia",2011,"30 to 34",2004
"Southern Asia",2011,"30 to 34",15053
"India",2011,"30 to 34",5421
"Pakistan",2011,"30 to 34",5133
"Bangladesh",2011,"30 to 34",2403
"South East Asia",2011,"30 to 34",2201
"Antarctica and Oceania",2011,"30 to 34",1426
"Australasia",2011,"30 to 34",1349
"Other Oceania",2011,"30 to 34",77
"Not Stated",2011,"30 to 34",2
"Total",2010,"30 to 34",202457
"United Kingdom",2010,"30 to 34",144185
"Total outside United Kingdom",2010,"30 to 34",58266
"EU",2010,"30 to 34",16300
"New EU",2010,"30 to 34",9749
"Poland",2010,"30 to 34",5579
"Rest of Europe (non EU)",2010,"30 to 34",2349
"Africa",2010,"30 to 34",13320
"North Africa",2010,"30 to 34",1162
"Western Africa",2010,"30 to 34",4737
"Central Africa",2010,"30 to 34",774
"Eastern Africa",2010,"30 to 34",4715
"Southern Africa",2010,"30 to 34",1896
"The Americas and the Caribbean",2010,"30 to 34",4017
"North America",2010,"30 to 34",1694
"Central America",2010,"30 to 34",153
"South America",2010,"30 to 34",1254
"Caribbean",2010,"30 to 34",916
"Middle East and Asia",2010,"30 to 34",20711
"Middle East",2010,"30 to 34",1796
"Central Asia",2010,"30 to 34",104
"Eastern Asia",2010,"30 to 34",2032
"Southern Asia",2010,"30 to 34",14310
"India",2010,"30 to 34",5059
"Pakistan",2010,"30 to 34",4957
"Bangladesh",2010,"30 to 34",2257
"South East Asia",2010,"30 to 34",2435
"Antarctica and Oceania",2010,"30 to 34",1569
"Australasia",2010,"30 to 34",1500
"Other Oceania",2010,"30 to 34",68
"Not Stated",2010,"30 to 34",6
"Total",2009,"30 to 34",191600
"United Kingdom",2009,"30 to 34",137370
"Total outside United Kingdom",2009,"30 to 34",54223
"EU",2009,"30 to 34",14153
"New EU",2009,"30 to 34",7814
"Poland",2009,"30 to 34",4470
"Rest of Europe (non EU)",2009,"30 to 34",2196
"Africa",2009,"30 to 34",13151
"North Africa",2009,"30 to 34",1129
"Western Africa",2009,"30 to 34",4578
"Central Africa",2009,"30 to 34",742
"Eastern Africa",2009,"30 to 34",4753
"Southern Africa",2009,"30 to 34",1932
"The Americas and the Caribbean",2009,"30 to 34",3788
"North America",2009,"30 to 34",1500
"Central America",2009,"30 to 34",134
"South America",2009,"30 to 34",1162
"Caribbean",2009,"30 to 34",992
"Middle East and Asia",2009,"30 to 34",19476
"Middle East",2009,"30 to 34",1662
"Central Asia",2009,"30 to 34",82
"Eastern Asia",2009,"30 to 34",1827
"Southern Asia",2009,"30 to 34",13348
"India",2009,"30 to 34",4532
"Pakistan",2009,"30 to 34",4719
"Bangladesh",2009,"30 to 34",2208
"South East Asia",2009,"30 to 34",2525
"Antarctica and Oceania",2009,"30 to 34",1459
"Australasia",2009,"30 to 34",1387
"Other Oceania",2009,"30 to 34",72
"Not Stated",2009,"30 to 34",7
"Total",2008,"30 to 34",192450
"United Kingdom",2008,"30 to 34",140314
"Total outside United Kingdom",2008,"30 to 34",52131
"EU",2008,"30 to 34",12789
"New EU",2008,"30 to 34",6344
"Poland",2008,"30 to 34",3577
"Rest of Europe (non EU)",2008,"30 to 34",2149
"Africa",2008,"30 to 34",13056
"North Africa",2008,"30 to 34",1076
"Western Africa",2008,"30 to 34",4455
"Central Africa",2008,"30 to 34",723
"Eastern Africa",2008,"30 to 34",4748
"Southern Africa",2008,"30 to 34",2017
"The Americas and the Caribbean",2008,"30 to 34",3631
"North America",2008,"30 to 34",1511
"Central America",2008,"30 to 34",140
"South America",2008,"30 to 34",1073
"Caribbean",2008,"30 to 34",907
"Middle East and Asia",2008,"30 to 34",18865
"Middle East",2008,"30 to 34",1514
"Central Asia",2008,"30 to 34",76
"Eastern Asia",2008,"30 to 34",1723
"Southern Asia",2008,"30 to 34",12754
"India",2008,"30 to 34",4294
"Pakistan",2008,"30 to 34",4529
"Bangladesh",2008,"30 to 34",2174
"South East Asia",2008,"30 to 34",2752
"Antarctica and Oceania",2008,"30 to 34",1641
"Australasia",2008,"30 to 34",1570
"Other Oceania",2008,"30 to 34",71
"Not Stated",2008,"30 to 34",5
"Total",2017,"35 to 39",125114
"United Kingdom",2017,"35 to 39",82594
"Total outside United Kingdom",2017,"35 to 39",42514
"EU",2017,"35 to 39",14701
"New EU",2017,"35 to 39",8867
"Poland",2017,"35 to 39",4275
"Rest of Europe (non EU)",2017,"35 to 39",1981
"Africa",2017,"35 to 39",8102
"North Africa",2017,"35 to 39",948
"Western Africa",2017,"35 to 39",2942
"Central Africa",2017,"35 to 39",477
"Eastern Africa",2017,"35 to 39",2702
"Southern Africa",2017,"35 to 39",1023
"The Americas and the Caribbean",2017,"35 to 39",3352
"North America",2017,"35 to 39",1339
"Central America",2017,"35 to 39",135
"South America",2017,"35 to 39",1249
"Caribbean",2017,"35 to 39",629
"Middle East and Asia",2017,"35 to 39",13337
"Middle East",2017,"35 to 39",1714
"Central Asia",2017,"35 to 39",112
"Eastern Asia",2017,"35 to 39",1618
"Southern Asia",2017,"35 to 39",8478
"India",2017,"35 to 39",2812
"Pakistan",2017,"35 to 39",3031
"Bangladesh",2017,"35 to 39",1399
"South East Asia",2017,"35 to 39",1401
"Antarctica and Oceania",2017,"35 to 39",1041
"Australasia",2017,"35 to 39",990
"Other Oceania",2017,"35 to 39",51
"Not Stated",2017,"35 to 39",6
"Total",2016,"35 to 39",125205
"United Kingdom",2016,"35 to 39",83468
"Total outside United Kingdom",2016,"35 to 39",41728
"EU",2016,"35 to 39",13972
"New EU",2016,"35 to 39",8216
"Poland",2016,"35 to 39",3899
"Rest of Europe (non EU)",2016,"35 to 39",1928
"Africa",2016,"35 to 39",8255
"North Africa",2016,"35 to 39",877
"Western Africa",2016,"35 to 39",3082
"Central Africa",2016,"35 to 39",452
"Eastern Africa",2016,"35 to 39",2780
"Southern Africa",2016,"35 to 39",1050
"The Americas and the Caribbean",2016,"35 to 39",3351
"North America",2016,"35 to 39",1354
"Central America",2016,"35 to 39",133
"South America",2016,"35 to 39",1225
"Caribbean",2016,"35 to 39",639
"Middle East and Asia",2016,"35 to 39",13163
"Middle East",2016,"35 to 39",1615
"Central Asia",2016,"35 to 39",110
"Eastern Asia",2016,"35 to 39",1511
"Southern Asia",2016,"35 to 39",8371
"India",2016,"35 to 39",2722
"Pakistan",2016,"35 to 39",3032
"Bangladesh",2016,"35 to 39",1420
"South East Asia",2016,"35 to 39",1539
"Antarctica and Oceania",2016,"35 to 39",1059
"Australasia",2016,"35 to 39",1008
"Other Oceania",2016,"35 to 39",51
"Not Stated",2016,"35 to 39",9
"Total",2015,"35 to 39",120614
"United Kingdom",2015,"35 to 39",80871
"Total outside United Kingdom",2015,"35 to 39",39737
"EU",2015,"35 to 39",12884
"New EU",2015,"35 to 39",7311
"Poland",2015,"35 to 39",3491
"Rest of Europe (non EU)",2015,"35 to 39",1755
"Africa",2015,"35 to 39",8211
"North Africa",2015,"35 to 39",859
"Western Africa",2015,"35 to 39",3011
"Central Africa",2015,"35 to 39",479
"Eastern Africa",2015,"35 to 39",2809
"Southern Africa",2015,"35 to 39",1046
"The Americas and the Caribbean",2015,"35 to 39",3347
"North America",2015,"35 to 39",1333
"Central America",2015,"35 to 39",138
"South America",2015,"35 to 39",1180
"Caribbean",2015,"35 to 39",696
"Middle East and Asia",2015,"35 to 39",12393
"Middle East",2015,"35 to 39",1430
"Central Asia",2015,"35 to 39",103
"Eastern Asia",2015,"35 to 39",1523
"Southern Asia",2015,"35 to 39",7662
"India",2015,"35 to 39",2493
"Pakistan",2015,"35 to 39",2776
"Bangladesh",2015,"35 to 39",1266
"South East Asia",2015,"35 to 39",1655
"Antarctica and Oceania",2015,"35 to 39",1147
"Australasia",2015,"35 to 39",1089
"Other Oceania",2015,"35 to 39",58
"Not Stated",2015,"35 to 39",6
"Total",2014,"35 to 39",115171
"United Kingdom",2014,"35 to 39",77894
"Total outside United Kingdom",2014,"35 to 39",37270
"EU",2014,"35 to 39",11536
"New EU",2014,"35 to 39",6163
"Poland",2014,"35 to 39",2933
"Rest of Europe (non EU)",2014,"35 to 39",1633
"Africa",2014,"35 to 39",7992
"North Africa",2014,"35 to 39",816
"Western Africa",2014,"35 to 39",2891
"Central Africa",2014,"35 to 39",454
"Eastern Africa",2014,"35 to 39",2783
"Southern Africa",2014,"35 to 39",1032
"The Americas and the Caribbean",2014,"35 to 39",3100
"North America",2014,"35 to 39",1285
"Central America",2014,"35 to 39",141
"South America",2014,"35 to 39",1026
"Caribbean",2014,"35 to 39",648
"Middle East and Asia",2014,"35 to 39",11787
"Middle East",2014,"35 to 39",1273
"Central Asia",2014,"35 to 39",73
"Eastern Asia",2014,"35 to 39",1431
"Southern Asia",2014,"35 to 39",7253
"India",2014,"35 to 39",2247
"Pakistan",2014,"35 to 39",2712
"Bangladesh",2014,"35 to 39",1212
"South East Asia",2014,"35 to 39",1732
"Antarctica and Oceania",2014,"35 to 39",1222
"Australasia",2014,"35 to 39",1157
"Other Oceania",2014,"35 to 39",65
"Not Stated",2014,"35 to 39",7
"Total",2013,"35 to 39",111500
"United Kingdom",2013,"35 to 39",76604
"Total outside United Kingdom",2013,"35 to 39",34894
"EU",2013,"35 to 39",10272
"New EU",2013,"35 to 39",5164
"Poland",2013,"35 to 39",2383
"Rest of Europe (non EU)",2013,"35 to 39",1452
"Africa",2013,"35 to 39",7999
"North Africa",2013,"35 to 39",804
"Western Africa",2013,"35 to 39",2764
"Central Africa",2013,"35 to 39",475
"Eastern Africa",2013,"35 to 39",2850
"Southern Africa",2013,"35 to 39",1084
"The Americas and the Caribbean",2013,"35 to 39",2930
"North America",2013,"35 to 39",1189
"Central America",2013,"35 to 39",106
"South America",2013,"35 to 39",965
"Caribbean",2013,"35 to 39",670
"Middle East and Asia",2013,"35 to 39",11090
"Middle East",2013,"35 to 39",1165
"Central Asia",2013,"35 to 39",63
"Eastern Asia",2013,"35 to 39",1274
"Southern Asia",2013,"35 to 39",6768
"India",2013,"35 to 39",2075
"Pakistan",2013,"35 to 39",2530
"Bangladesh",2013,"35 to 39",1133
"South East Asia",2013,"35 to 39",1808
"Antarctica and Oceania",2013,"35 to 39",1151
"Australasia",2013,"35 to 39",1111
"Other Oceania",2013,"35 to 39",40
"Not Stated",2013,"35 to 39",2
"Total",2012,"35 to 39",114797
"United Kingdom",2012,"35 to 39",80642
"Total outside United Kingdom",2012,"35 to 39",34153
"EU",2012,"35 to 39",9303
"New EU",2012,"35 to 39",4418
"Poland",2012,"35 to 39",2058
"Rest of Europe (non EU)",2012,"35 to 39",1435
"Africa",2012,"35 to 39",8054
"North Africa",2012,"35 to 39",739
"Western Africa",2012,"35 to 39",2705
"Central Africa",2012,"35 to 39",462
"Eastern Africa",2012,"35 to 39",2944
"Southern Africa",2012,"35 to 39",1184
"The Americas and the Caribbean",2012,"35 to 39",2904
"North America",2012,"35 to 39",1171
"Central America",2012,"35 to 39",101
"South America",2012,"35 to 39",922
"Caribbean",2012,"35 to 39",710
"Middle East and Asia",2012,"35 to 39",11155
"Middle East",2012,"35 to 39",1066
"Central Asia",2012,"35 to 39",77
"Eastern Asia",2012,"35 to 39",1408
"Southern Asia",2012,"35 to 39",6577
"India",2012,"35 to 39",1997
"Pakistan",2012,"35 to 39",2451
"Bangladesh",2012,"35 to 39",1136
"South East Asia",2012,"35 to 39",2015
"Antarctica and Oceania",2012,"35 to 39",1302
"Australasia",2012,"35 to 39",1261
"Other Oceania",2012,"35 to 39",41
"Not Stated",2012,"35 to 39",2
"Total",2011,"35 to 39",115444
"United Kingdom",2011,"35 to 39",83036
"Total outside United Kingdom",2011,"35 to 39",32403
"EU",2011,"35 to 39",8359
"New EU",2011,"35 to 39",3462
"Poland",2011,"35 to 39",1657
"Rest of Europe (non EU)",2011,"35 to 39",1402
"Africa",2011,"35 to 39",7984
"North Africa",2011,"35 to 39",746
"Western Africa",2011,"35 to 39",2543
"Central Africa",2011,"35 to 39",481
"Eastern Africa",2011,"35 to 39",3045
"Southern Africa",2011,"35 to 39",1151
"The Americas and the Caribbean",2011,"35 to 39",2765
"North America",2011,"35 to 39",1203
"Central America",2011,"35 to 39",93
"South America",2011,"35 to 39",870
"Caribbean",2011,"35 to 39",599
"Middle East and Asia",2011,"35 to 39",10613
"Middle East",2011,"35 to 39",1028
"Central Asia",2011,"35 to 39",63
"Eastern Asia",2011,"35 to 39",1311
"Southern Asia",2011,"35 to 39",6172
"India",2011,"35 to 39",1816
"Pakistan",2011,"35 to 39",2342
"Bangladesh",2011,"35 to 39",1087
"South East Asia",2011,"35 to 39",2011
"Antarctica and Oceania",2011,"35 to 39",1280
"Australasia",2011,"35 to 39",1250
"Other Oceania",2011,"35 to 39",30
"Not Stated",2011,"35 to 39",5
"Total",2010,"35 to 39",115841
"United Kingdom",2010,"35 to 39",84944
"Total outside United Kingdom",2010,"35 to 39",30893
"EU",2010,"35 to 39",7802
"New EU",2010,"35 to 39",2808
"Poland",2010,"35 to 39",1382
"Rest of Europe (non EU)",2010,"35 to 39",1363
"Africa",2010,"35 to 39",7723
"North Africa",2010,"35 to 39",704
"Western Africa",2010,"35 to 39",2413
"Central Africa",2010,"35 to 39",439
"Eastern Africa",2010,"35 to 39",3053
"Southern Africa",2010,"35 to 39",1098
"The Americas and the Caribbean",2010,"35 to 39",2740
"North America",2010,"35 to 39",1123
"Central America",2010,"35 to 39",94
"South America",2010,"35 to 39",838
"Caribbean",2010,"35 to 39",685
"Middle East and Asia",2010,"35 to 39",9853
"Middle East",2010,"35 to 39",929
"Central Asia",2010,"35 to 39",42
"Eastern Asia",2010,"35 to 39",1275
"Southern Asia",2010,"35 to 39",5638
"India",2010,"35 to 39",1678
"Pakistan",2010,"35 to 39",2134
"Bangladesh",2010,"35 to 39",951
"South East Asia",2010,"35 to 39",1953
"Antarctica and Oceania",2010,"35 to 39",1412
"Australasia",2010,"35 to 39",1373
"Other Oceania",2010,"35 to 39",39
"Not Stated",2010,"35 to 39",4
"Total",2009,"35 to 39",114288
"United Kingdom",2009,"35 to 39",85721
"Total outside United Kingdom",2009,"35 to 39",28565
"EU",2009,"35 to 39",6783
"New EU",2009,"35 to 39",2250
"Poland",2009,"35 to 39",1110
"Rest of Europe (non EU)",2009,"35 to 39",1235
"Africa",2009,"35 to 39",7475
"North Africa",2009,"35 to 39",692
"Western Africa",2009,"35 to 39",2264
"Central Africa",2009,"35 to 39",466
"Eastern Africa",2009,"35 to 39",2993
"Southern Africa",2009,"35 to 39",1047
"The Americas and the Caribbean",2009,"35 to 39",2624
"North America",2009,"35 to 39",1120
"Central America",2009,"35 to 39",83
"South America",2009,"35 to 39",776
"Caribbean",2009,"35 to 39",645
"Middle East and Asia",2009,"35 to 39",9199
"Middle East",2009,"35 to 39",854
"Central Asia",2009,"35 to 39",39
"Eastern Asia",2009,"35 to 39",1153
"Southern Asia",2009,"35 to 39",5200
"India",2009,"35 to 39",1472
"Pakistan",2009,"35 to 39",2076
"Bangladesh",2009,"35 to 39",878
"South East Asia",2009,"35 to 39",1933
"Antarctica and Oceania",2009,"35 to 39",1249
"Australasia",2009,"35 to 39",1226
"Other Oceania",2009,"35 to 39",23
"Not Stated",2009,"35 to 39",2
"Total",2008,"35 to 39",116220
"United Kingdom",2008,"35 to 39",89121
"Total outside United Kingdom",2008,"35 to 39",27092
"EU",2008,"35 to 39",6311
"New EU",2008,"35 to 39",1772
"Poland",2008,"35 to 39",824
"Rest of Europe (non EU)",2008,"35 to 39",1126
"Africa",2008,"35 to 39",7229
"North Africa",2008,"35 to 39",612
"Western Africa",2008,"35 to 39",2140
"Central Africa",2008,"35 to 39",449
"Eastern Africa",2008,"35 to 39",3006
"Southern Africa",2008,"35 to 39",1014
"The Americas and the Caribbean",2008,"35 to 39",2558
"North America",2008,"35 to 39",1175
"Central America",2008,"35 to 39",71
"South America",2008,"35 to 39",673
"Caribbean",2008,"35 to 39",639
"Middle East and Asia",2008,"35 to 39",8586
"Middle East",2008,"35 to 39",810
"Central Asia",2008,"35 to 39",37
"Eastern Asia",2008,"35 to 39",1160
"Southern Asia",2008,"35 to 39",4687
"India",2008,"35 to 39",1349
"Pakistan",2008,"35 to 39",1880
"Bangladesh",2008,"35 to 39",742
"South East Asia",2008,"35 to 39",1855
"Antarctica and Oceania",2008,"35 to 39",1282
"Australasia",2008,"35 to 39",1243
"Other Oceania",2008,"35 to 39",39
"Not Stated",2008,"35 to 39",7
"Total",2017,"40 to 44",26956
"United Kingdom",2017,"40 to 44",16633
"Total outside United Kingdom",2017,"40 to 44",10321
"EU",2017,"40 to 44",2956
"New EU",2017,"40 to 44",1452
"Poland",2017,"40 to 44",559
"Rest of Europe (non EU)",2017,"40 to 44",481
"Africa",2017,"40 to 44",2558
"North Africa",2017,"40 to 44",276
"Western Africa",2017,"40 to 44",920
"Central Africa",2017,"40 to 44",177
"Eastern Africa",2017,"40 to 44",930
"Southern Africa",2017,"40 to 44",254
"The Americas and the Caribbean",2017,"40 to 44",911
"North America",2017,"40 to 44",311
"Central America",2017,"40 to 44",40
"South America",2017,"40 to 44",347
"Caribbean",2017,"40 to 44",213
"Middle East and Asia",2017,"40 to 44",3096
"Middle East",2017,"40 to 44",422
"Central Asia",2017,"40 to 44",22
"Eastern Asia",2017,"40 to 44",378
"Southern Asia",2017,"40 to 44",1767
"India",2017,"40 to 44",487
"Pakistan",2017,"40 to 44",664
"Bangladesh",2017,"40 to 44",307
"South East Asia",2017,"40 to 44",502
"Antarctica and Oceania",2017,"40 to 44",319
"Australasia",2017,"40 to 44",308
"Other Oceania",2017,"40 to 44",11
"Not Stated",2017,"40 to 44",2
"Total",2016,"40 to 44",27447
"United Kingdom",2016,"40 to 44",17386
"Total outside United Kingdom",2016,"40 to 44",10054
"EU",2016,"40 to 44",2775
"New EU",2016,"40 to 44",1362
"Poland",2016,"40 to 44",569
"Rest of Europe (non EU)",2016,"40 to 44",416
"Africa",2016,"40 to 44",2504
"North Africa",2016,"40 to 44",255
"Western Africa",2016,"40 to 44",888
"Central Africa",2016,"40 to 44",159
"Eastern Africa",2016,"40 to 44",937
"Southern Africa",2016,"40 to 44",259
"The Americas and the Caribbean",2016,"40 to 44",970
"North America",2016,"40 to 44",361
"Central America",2016,"40 to 44",33
"South America",2016,"40 to 44",364
"Caribbean",2016,"40 to 44",212
"Middle East and Asia",2016,"40 to 44",3082
"Middle East",2016,"40 to 44",392
"Central Asia",2016,"40 to 44",25
"Eastern Asia",2016,"40 to 44",411
"Southern Asia",2016,"40 to 44",1728
"India",2016,"40 to 44",435
"Pakistan",2016,"40 to 44",680
"Bangladesh",2016,"40 to 44",314
"South East Asia",2016,"40 to 44",522
"Antarctica and Oceania",2016,"40 to 44",307
"Australasia",2016,"40 to 44",303
"Other Oceania",2016,"40 to 44",4
"Not Stated",2016,"40 to 44",7
"Total",2015,"40 to 44",27065
"United Kingdom",2015,"40 to 44",17851
"Total outside United Kingdom",2015,"40 to 44",9213
"EU",2015,"40 to 44",2501
"New EU",2015,"40 to 44",1140
"Poland",2015,"40 to 44",458
"Rest of Europe (non EU)",2015,"40 to 44",376
"Africa",2015,"40 to 44",2410
"North Africa",2015,"40 to 44",239
"Western Africa",2015,"40 to 44",801
"Central Africa",2015,"40 to 44",159
"Eastern Africa",2015,"40 to 44",964
"Southern Africa",2015,"40 to 44",242
"The Americas and the Caribbean",2015,"40 to 44",873
"North America",2015,"40 to 44",294
"Central America",2015,"40 to 44",30
"South America",2015,"40 to 44",314
"Caribbean",2015,"40 to 44",235
"Middle East and Asia",2015,"40 to 44",2763
"Middle East",2015,"40 to 44",364
"Central Asia",2015,"40 to 44",21
"Eastern Asia",2015,"40 to 44",347
"Southern Asia",2015,"40 to 44",1541
"India",2015,"40 to 44",395
"Pakistan",2015,"40 to 44",591
"Bangladesh",2015,"40 to 44",271
"South East Asia",2015,"40 to 44",486
"Antarctica and Oceania",2015,"40 to 44",290
"Australasia",2015,"40 to 44",282
"Other Oceania",2015,"40 to 44",8
"Not Stated",2015,"40 to 44",1
"Total",2014,"40 to 44",27021
"United Kingdom",2014,"40 to 44",18458
"Total outside United Kingdom",2014,"40 to 44",8560
"EU",2014,"40 to 44",2172
"New EU",2014,"40 to 44",885
"Poland",2014,"40 to 44",372
"Rest of Europe (non EU)",2014,"40 to 44",376
"Africa",2014,"40 to 44",2231
"North Africa",2014,"40 to 44",214
"Western Africa",2014,"40 to 44",738
"Central Africa",2014,"40 to 44",144
"Eastern Africa",2014,"40 to 44",872
"Southern Africa",2014,"40 to 44",258
"The Americas and the Caribbean",2014,"40 to 44",892
"North America",2014,"40 to 44",310
"Central America",2014,"40 to 44",21
"South America",2014,"40 to 44",310
"Caribbean",2014,"40 to 44",251
"Middle East and Asia",2014,"40 to 44",2588
"Middle East",2014,"40 to 44",304
"Central Asia",2014,"40 to 44",15
"Eastern Asia",2014,"40 to 44",396
"Southern Asia",2014,"40 to 44",1353
"India",2014,"40 to 44",354
"Pakistan",2014,"40 to 44",557
"Bangladesh",2014,"40 to 44",226
"South East Asia",2014,"40 to 44",518
"Antarctica and Oceania",2014,"40 to 44",301
"Australasia",2014,"40 to 44",292
"Other Oceania",2014,"40 to 44",9
"Not Stated",2014,"40 to 44",3
"Total",2013,"40 to 44",27148
"United Kingdom",2013,"40 to 44",19125
"Total outside United Kingdom",2013,"40 to 44",8021
"EU",2013,"40 to 44",1892
"New EU",2013,"40 to 44",724
"Poland",2013,"40 to 44",290
"Rest of Europe (non EU)",2013,"40 to 44",351
"Africa",2013,"40 to 44",2185
"North Africa",2013,"40 to 44",231
"Western Africa",2013,"40 to 44",687
"Central Africa",2013,"40 to 44",122
"Eastern Africa",2013,"40 to 44",905
"Southern Africa",2013,"40 to 44",236
"The Americas and the Caribbean",2013,"40 to 44",794
"North America",2013,"40 to 44",296
"Central America",2013,"40 to 44",18
"South America",2013,"40 to 44",265
"Caribbean",2013,"40 to 44",215
"Middle East and Asia",2013,"40 to 44",2462
"Middle East",2013,"40 to 44",278
"Central Asia",2013,"40 to 44",16
"Eastern Asia",2013,"40 to 44",345
"Southern Asia",2013,"40 to 44",1296
"India",2013,"40 to 44",324
"Pakistan",2013,"40 to 44",538
"Bangladesh",2013,"40 to 44",203
"South East Asia",2013,"40 to 44",522
"Antarctica and Oceania",2013,"40 to 44",337
"Australasia",2013,"40 to 44",328
"Other Oceania",2013,"40 to 44",9
"Not Stated",2013,"40 to 44",2
"Total",2012,"40 to 44",28019
"United Kingdom",2012,"40 to 44",20058
"Total outside United Kingdom",2012,"40 to 44",7959
"EU",2012,"40 to 44",1797
"New EU",2012,"40 to 44",626
"Poland",2012,"40 to 44",268
"Rest of Europe (non EU)",2012,"40 to 44",361
"Africa",2012,"40 to 44",2235
"North Africa",2012,"40 to 44",219
"Western Africa",2012,"40 to 44",693
"Central Africa",2012,"40 to 44",166
"Eastern Africa",2012,"40 to 44",947
"Southern Africa",2012,"40 to 44",204
"The Americas and the Caribbean",2012,"40 to 44",811
"North America",2012,"40 to 44",328
"Central America",2012,"40 to 44",16
"South America",2012,"40 to 44",244
"Caribbean",2012,"40 to 44",223
"Middle East and Asia",2012,"40 to 44",2442
"Middle East",2012,"40 to 44",296
"Central Asia",2012,"40 to 44",19
"Eastern Asia",2012,"40 to 44",313
"Southern Asia",2012,"40 to 44",1269
"India",2012,"40 to 44",318
"Pakistan",2012,"40 to 44",507
"Bangladesh",2012,"40 to 44",204
"South East Asia",2012,"40 to 44",543
"Antarctica and Oceania",2012,"40 to 44",313
"Australasia",2012,"40 to 44",303
"Other Oceania",2012,"40 to 44",10
"Not Stated",2012,"40 to 44",2
"Total",2011,"40 to 44",27518
"United Kingdom",2011,"40 to 44",20094
"Total outside United Kingdom",2011,"40 to 44",7422
"EU",2011,"40 to 44",1653
"New EU",2011,"40 to 44",504
"Poland",2011,"40 to 44",192
"Rest of Europe (non EU)",2011,"40 to 44",293
"Africa",2011,"40 to 44",2120
"North Africa",2011,"40 to 44",224
"Western Africa",2011,"40 to 44",615
"Central Africa",2011,"40 to 44",156
"Eastern Africa",2011,"40 to 44",924
"Southern Africa",2011,"40 to 44",196
"The Americas and the Caribbean",2011,"40 to 44",787
"North America",2011,"40 to 44",347
"Central America",2011,"40 to 44",26
"South America",2011,"40 to 44",216
"Caribbean",2011,"40 to 44",198
"Middle East and Asia",2011,"40 to 44",2272
"Middle East",2011,"40 to 44",287
"Central Asia",2011,"40 to 44",15
"Eastern Asia",2011,"40 to 44",300
"Southern Asia",2011,"40 to 44",1184
"India",2011,"40 to 44",309
"Pakistan",2011,"40 to 44",473
"Bangladesh",2011,"40 to 44",196
"South East Asia",2011,"40 to 44",482
"Antarctica and Oceania",2011,"40 to 44",297
"Australasia",2011,"40 to 44",287
"Other Oceania",2011,"40 to 44",9
"Not Stated",2011,"40 to 44",2
"Total",2010,"40 to 44",25973
"United Kingdom",2010,"40 to 44",19142
"Total outside United Kingdom",2010,"40 to 44",6831
"EU",2010,"40 to 44",1545
"New EU",2010,"40 to 44",405
"Poland",2010,"40 to 44",172
"Rest of Europe (non EU)",2010,"40 to 44",269
"Africa",2010,"40 to 44",1991
"North Africa",2010,"40 to 44",201
"Western Africa",2010,"40 to 44",574
"Central Africa",2010,"40 to 44",134
"Eastern Africa",2010,"40 to 44",925
"Southern Africa",2010,"40 to 44",155
"The Americas and the Caribbean",2010,"40 to 44",743
"North America",2010,"40 to 44",330
"Central America",2010,"40 to 44",15
"South America",2010,"40 to 44",211
"Caribbean",2010,"40 to 44",187
"Middle East and Asia",2010,"40 to 44",2020
"Middle East",2010,"40 to 44",261
"Central Asia",2010,"40 to 44",8
"Eastern Asia",2010,"40 to 44",283
"Southern Asia",2010,"40 to 44",1011
"India",2010,"40 to 44",248
"Pakistan",2010,"40 to 44",416
"Bangladesh",2010,"40 to 44",163
"South East Asia",2010,"40 to 44",451
"Antarctica and Oceania",2010,"40 to 44",263
"Australasia",2010,"40 to 44",257
"Other Oceania",2010,"40 to 44",6
"Not Stated",2010,"40 to 44",0
"Total",2009,"40 to 44",25357
"United Kingdom",2009,"40 to 44",19236
"Total outside United Kingdom",2009,"40 to 44",6118
"EU",2009,"40 to 44",1324
"New EU",2009,"40 to 44",349
"Poland",2009,"40 to 44",148
"Rest of Europe (non EU)",2009,"40 to 44",240
"Africa",2009,"40 to 44",1830
"North Africa",2009,"40 to 44",218
"Western Africa",2009,"40 to 44",563
"Central Africa",2009,"40 to 44",130
"Eastern Africa",2009,"40 to 44",772
"Southern Africa",2009,"40 to 44",143
"The Americas and the Caribbean",2009,"40 to 44",672
"North America",2009,"40 to 44",306
"Central America",2009,"40 to 44",21
"South America",2009,"40 to 44",190
"Caribbean",2009,"40 to 44",155
"Middle East and Asia",2009,"40 to 44",1815
"Middle East",2009,"40 to 44",227
"Central Asia",2009,"40 to 44",6
"Eastern Asia",2009,"40 to 44",236
"Southern Asia",2009,"40 to 44",956
"India",2009,"40 to 44",246
"Pakistan",2009,"40 to 44",411
"Bangladesh",2009,"40 to 44",129
"South East Asia",2009,"40 to 44",387
"Antarctica and Oceania",2009,"40 to 44",237
"Australasia",2009,"40 to 44",234
"Other Oceania",2009,"40 to 44",3
"Not Stated",2009,"40 to 44",3
"Total",2008,"40 to 44",24991
"United Kingdom",2008,"40 to 44",19117
"Total outside United Kingdom",2008,"40 to 44",5871
"EU",2008,"40 to 44",1231
"New EU",2008,"40 to 44",289
"Poland",2008,"40 to 44",109
"Rest of Europe (non EU)",2008,"40 to 44",205
"Africa",2008,"40 to 44",1792
"North Africa",2008,"40 to 44",175
"Western Africa",2008,"40 to 44",568
"Central Africa",2008,"40 to 44",119
"Eastern Africa",2008,"40 to 44",796
"Southern Africa",2008,"40 to 44",129
"The Americas and the Caribbean",2008,"40 to 44",680
"North America",2008,"40 to 44",305
"Central America",2008,"40 to 44",12
"South America",2008,"40 to 44",199
"Caribbean",2008,"40 to 44",164
"Middle East and Asia",2008,"40 to 44",1740
"Middle East",2008,"40 to 44",213
"Central Asia",2008,"40 to 44",7
"Eastern Asia",2008,"40 to 44",253
"Southern Asia",2008,"40 to 44",880
"India",2008,"40 to 44",215
"Pakistan",2008,"40 to 44",404
"Bangladesh",2008,"40 to 44",125
"South East Asia",2008,"40 to 44",382
"Antarctica and Oceania",2008,"40 to 44",223
"Australasia",2008,"40 to 44",210
"Other Oceania",2008,"40 to 44",13
"Not Stated",2008,"40 to 44",3
"Total",2017,"45 and over",2357
"United Kingdom",2017,"45 and over",1363
"Total outside United Kingdom",2017,"45 and over",994
"EU",2017,"45 and over",163
"New EU",2017,"45 and over",53
"Poland",2017,"45 and over",18
"Rest of Europe (non EU)",2017,"45 and over",43
"Africa",2017,"45 and over",362
"North Africa",2017,"45 and over",24
"Western Africa",2017,"45 and over",136
"Central Africa",2017,"45 and over",29
"Eastern Africa",2017,"45 and over",151
"Southern Africa",2017,"45 and over",20
"The Americas and the Caribbean",2017,"45 and over",79
"North America",2017,"45 and over",30
"Central America",2017,"45 and over",0
"South America",2017,"45 and over",34
"Caribbean",2017,"45 and over",15
"Middle East and Asia",2017,"45 and over",318
"Middle East",2017,"45 and over",52
"Central Asia",2017,"45 and over",4
"Eastern Asia",2017,"45 and over",36
"Southern Asia",2017,"45 and over",180
"India",2017,"45 and over",55
"Pakistan",2017,"45 and over",60
"Bangladesh",2017,"45 and over",26
"South East Asia",2017,"45 and over",45
"Antarctica and Oceania",2017,"45 and over",29
"Australasia",2017,"45 and over",29
"Other Oceania",2017,"45 and over",0
"Not Stated",2017,"45 and over",0
"Total",2016,"45 and over",2286
"United Kingdom",2016,"45 and over",1354
"Total outside United Kingdom",2016,"45 and over",932
"EU",2016,"45 and over",154
"New EU",2016,"45 and over",50
"Poland",2016,"45 and over",19
"Rest of Europe (non EU)",2016,"45 and over",47
"Africa",2016,"45 and over",341
"North Africa",2016,"45 and over",21
"Western Africa",2016,"45 and over",121
"Central Africa",2016,"45 and over",24
"Eastern Africa",2016,"45 and over",164
"Southern Africa",2016,"45 and over",11
"The Americas and the Caribbean",2016,"45 and over",99
"North America",2016,"45 and over",42
"Central America",2016,"45 and over",3
"South America",2016,"45 and over",24
"Caribbean",2016,"45 and over",30
"Middle East and Asia",2016,"45 and over",264
"Middle East",2016,"45 and over",50
"Central Asia",2016,"45 and over",2
"Eastern Asia",2016,"45 and over",36
"Southern Asia",2016,"45 and over",131
"India",2016,"45 and over",48
"Pakistan",2016,"45 and over",36
"Bangladesh",2016,"45 and over",25
"South East Asia",2016,"45 and over",43
"Antarctica and Oceania",2016,"45 and over",27
"Australasia",2016,"45 and over",26
"Other Oceania",2016,"45 and over",1
"Not Stated",2016,"45 and over",0
"Total",2015,"45 and over",2176
"United Kingdom",2015,"45 and over",1306
"Total outside United Kingdom",2015,"45 and over",870
"EU",2015,"45 and over",138
"New EU",2015,"45 and over",50
"Poland",2015,"45 and over",18
"Rest of Europe (non EU)",2015,"45 and over",42
"Africa",2015,"45 and over",328
"North Africa",2015,"45 and over",20
"Western Africa",2015,"45 and over",106
"Central Africa",2015,"45 and over",30
"Eastern Africa",2015,"45 and over",151
"Southern Africa",2015,"45 and over",21
"The Americas and the Caribbean",2015,"45 and over",87
"North America",2015,"45 and over",39
"Central America",2015,"45 and over",2
"South America",2015,"45 and over",25
"Caribbean",2015,"45 and over",21
"Middle East and Asia",2015,"45 and over",247
"Middle East",2015,"45 and over",36
"Central Asia",2015,"45 and over",2
"Eastern Asia",2015,"45 and over",35
"Southern Asia",2015,"45 and over",135
"India",2015,"45 and over",36
"Pakistan",2015,"45 and over",42
"Bangladesh",2015,"45 and over",15
"South East Asia",2015,"45 and over",39
"Antarctica and Oceania",2015,"45 and over",28
"Australasia",2015,"45 and over",28
"Other Oceania",2015,"45 and over",0
"Not Stated",2015,"45 and over",0
"Total",2014,"45 and over",1989
"United Kingdom",2014,"45 and over",1234
"Total outside United Kingdom",2014,"45 and over",755
"EU",2014,"45 and over",149
"New EU",2014,"45 and over",41
"Poland",2014,"45 and over",19
"Rest of Europe (non EU)",2014,"45 and over",39
"Africa",2014,"45 and over",267
"North Africa",2014,"45 and over",17
"Western Africa",2014,"45 and over",107
"Central Africa",2014,"45 and over",15
"Eastern Africa",2014,"45 and over",116
"Southern Africa",2014,"45 and over",11
"The Americas and the Caribbean",2014,"45 and over",76
"North America",2014,"45 and over",37
"Central America",2014,"45 and over",0
"South America",2014,"45 and over",18
"Caribbean",2014,"45 and over",21
"Middle East and Asia",2014,"45 and over",209
"Middle East",2014,"45 and over",38
"Central Asia",2014,"45 and over",2
"Eastern Asia",2014,"45 and over",22
"Southern Asia",2014,"45 and over",105
"India",2014,"45 and over",23
"Pakistan",2014,"45 and over",39
"Bangladesh",2014,"45 and over",14
"South East Asia",2014,"45 and over",41
"Antarctica and Oceania",2014,"45 and over",15
"Australasia",2014,"45 and over",15
"Other Oceania",2014,"45 and over",0
"Not Stated",2014,"45 and over",0
"Total",2013,"45 and over",2010
"United Kingdom",2013,"45 and over",1315
"Total outside United Kingdom",2013,"45 and over",695
"EU",2013,"45 and over",98
"New EU",2013,"45 and over",26
"Poland",2013,"45 and over",7
"Rest of Europe (non EU)",2013,"45 and over",27
"Africa",2013,"45 and over",265
"North Africa",2013,"45 and over",9
"Western Africa",2013,"45 and over",97
"Central Africa",2013,"45 and over",20
"Eastern Africa",2013,"45 and over",122
"Southern Africa",2013,"45 and over",17
"The Americas and the Caribbean",2013,"45 and over",70
"North America",2013,"45 and over",35
"Central America",2013,"45 and over",1
"South America",2013,"45 and over",25
"Caribbean",2013,"45 and over",9
"Middle East and Asia",2013,"45 and over",210
"Middle East",2013,"45 and over",25
"Central Asia",2013,"45 and over",0
"Eastern Asia",2013,"45 and over",23
"Southern Asia",2013,"45 and over",121
"India",2013,"45 and over",39
"Pakistan",2013,"45 and over",34
"Bangladesh",2013,"45 and over",15
"South East Asia",2013,"45 and over",41
"Antarctica and Oceania",2013,"45 and over",25
"Australasia",2013,"45 and over",25
"Other Oceania",2013,"45 and over",0
"Not Stated",2013,"45 and over",0
"Total",2012,"45 and over",1975
"United Kingdom",2012,"45 and over",1325
"Total outside United Kingdom",2012,"45 and over",650
"EU",2012,"45 and over",116
"New EU",2012,"45 and over",27
"Poland",2012,"45 and over",11
"Rest of Europe (non EU)",2012,"45 and over",31
"Africa",2012,"45 and over",194
"North Africa",2012,"45 and over",12
"Western Africa",2012,"45 and over",66
"Central Africa",2012,"45 and over",16
"Eastern Africa",2012,"45 and over",98
"Southern Africa",2012,"45 and over",2
"The Americas and the Caribbean",2012,"45 and over",64
"North America",2012,"45 and over",24
"Central America",2012,"45 and over",1
"South America",2012,"45 and over",17
"Caribbean",2012,"45 and over",22
"Middle East and Asia",2012,"45 and over",223
"Middle East",2012,"45 and over",38
"Central Asia",2012,"45 and over",1
"Eastern Asia",2012,"45 and over",27
"Southern Asia",2012,"45 and over",108
"India",2012,"45 and over",29
"Pakistan",2012,"45 and over",28
"Bangladesh",2012,"45 and over",18
"South East Asia",2012,"45 and over",49
"Antarctica and Oceania",2012,"45 and over",22
"Australasia",2012,"45 and over",22
"Other Oceania",2012,"45 and over",0
"Not Stated",2012,"45 and over",0
"Total",2011,"45 and over",1832
"United Kingdom",2011,"45 and over",1242
"Total outside United Kingdom",2011,"45 and over",590
"EU",2011,"45 and over",106
"New EU",2011,"45 and over",30
"Poland",2011,"45 and over",11
"Rest of Europe (non EU)",2011,"45 and over",17
"Africa",2011,"45 and over",197
"North Africa",2011,"45 and over",11
"Western Africa",2011,"45 and over",70
"Central Africa",2011,"45 and over",16
"Eastern Africa",2011,"45 and over",90
"Southern Africa",2011,"45 and over",10
"The Americas and the Caribbean",2011,"45 and over",68
"North America",2011,"45 and over",35
"Central America",2011,"45 and over",1
"South America",2011,"45 and over",24
"Caribbean",2011,"45 and over",8
"Middle East and Asia",2011,"45 and over",178
"Middle East",2011,"45 and over",30
"Central Asia",2011,"45 and over",2
"Eastern Asia",2011,"45 and over",26
"Southern Asia",2011,"45 and over",81
"India",2011,"45 and over",30
"Pakistan",2011,"45 and over",17
"Bangladesh",2011,"45 and over",13
"South East Asia",2011,"45 and over",39
"Antarctica and Oceania",2011,"45 and over",24
"Australasia",2011,"45 and over",24
"Other Oceania",2011,"45 and over",0
"Not Stated",2011,"45 and over",0
"Total",2010,"45 and over",1758
"United Kingdom",2010,"45 and over",1202
"Total outside United Kingdom",2010,"45 and over",556
"EU",2010,"45 and over",73
"New EU",2010,"45 and over",13
"Poland",2010,"45 and over",5
"Rest of Europe (non EU)",2010,"45 and over",19
"Africa",2010,"45 and over",215
"North Africa",2010,"45 and over",9
"Western Africa",2010,"45 and over",74
"Central Africa",2010,"45 and over",16
"Eastern Africa",2010,"45 and over",110
"Southern Africa",2010,"45 and over",6
"The Americas and the Caribbean",2010,"45 and over",54
"North America",2010,"45 and over",24
"Central America",2010,"45 and over",0
"South America",2010,"45 and over",18
"Caribbean",2010,"45 and over",12
"Middle East and Asia",2010,"45 and over",179
"Middle East",2010,"45 and over",19
"Central Asia",2010,"45 and over",2
"Eastern Asia",2010,"45 and over",24
"Southern Asia",2010,"45 and over",105
"India",2010,"45 and over",43
"Pakistan",2010,"45 and over",26
"Bangladesh",2010,"45 and over",12
"South East Asia",2010,"45 and over",29
"Antarctica and Oceania",2010,"45 and over",16
"Australasia",2010,"45 and over",16
"Other Oceania",2010,"45 and over",0
"Not Stated",2010,"45 and over",0
"Total",2009,"45 and over",1619
"United Kingdom",2009,"45 and over",1122
"Total outside United Kingdom",2009,"45 and over",497
"EU",2009,"45 and over",74
"New EU",2009,"45 and over",27
"Poland",2009,"45 and over",6
"Rest of Europe (non EU)",2009,"45 and over",20
"Africa",2009,"45 and over",180
"North Africa",2009,"45 and over",9
"Western Africa",2009,"45 and over",52
"Central Africa",2009,"45 and over",13
"Eastern Africa",2009,"45 and over",94
"Southern Africa",2009,"45 and over",11
"The Americas and the Caribbean",2009,"45 and over",58
"North America",2009,"45 and over",23
"Central America",2009,"45 and over",0
"South America",2009,"45 and over",20
"Caribbean",2009,"45 and over",15
"Middle East and Asia",2009,"45 and over",147
"Middle East",2009,"45 and over",20
"Central Asia",2009,"45 and over",1
"Eastern Asia",2009,"45 and over",20
"Southern Asia",2009,"45 and over",81
"India",2009,"45 and over",36
"Pakistan",2009,"45 and over",25
"Bangladesh",2009,"45 and over",8
"South East Asia",2009,"45 and over",25
"Antarctica and Oceania",2009,"45 and over",18
"Australasia",2009,"45 and over",18
"Other Oceania",2009,"45 and over",0
"Not Stated",2009,"45 and over",0
"Total",2008,"45 and over",1428
"United Kingdom",2008,"45 and over",1014
"Total outside United Kingdom",2008,"45 and over",414
"EU",2008,"45 and over",54
"New EU",2008,"45 and over",17
"Poland",2008,"45 and over",9
"Rest of Europe (non EU)",2008,"45 and over",13
"Africa",2008,"45 and over",151
"North Africa",2008,"45 and over",8
"Western Africa",2008,"45 and over",57
"Central Africa",2008,"45 and over",12
"Eastern Africa",2008,"45 and over",67
"Southern Africa",2008,"45 and over",7
"The Americas and the Caribbean",2008,"45 and over",53
"North America",2008,"45 and over",32
"Central America",2008,"45 and over",1
"South America",2008,"45 and over",9
"Caribbean",2008,"45 and over",11
"Middle East and Asia",2008,"45 and over",128
"Middle East",2008,"45 and over",13
"Central Asia",2008,"45 and over",0
"Eastern Asia",2008,"45 and over",15
"Southern Asia",2008,"45 and over",70
"India",2008,"45 and over",25
"Pakistan",2008,"45 and over",28
"Bangladesh",2008,"45 and over",7
"South East Asia",2008,"45 and over",30
"Antarctica and Oceania",2008,"45 and over",15
"Australasia",2008,"45 and over",15
"Other Oceania",2008,"45 and over",0
"Not Stated",2008,"45 and over",0
"Europe",2008,"< 20",1447
"Europe",2008,"20 to 24",9089
"Europe",2008,"25 to 29",16668
"Europe",2008,"30 to 34",14938
"Europe",2008,"35 to 39",7437
"Europe",2008,"40 to 44",1436
"Europe",2008,"45 and over",67
"Europe",2008,"All ages",51082
"Europe",2009,"< 20",1540
"Europe",2009,"20 to 24",8903
"Europe",2009,"25 to 29",18348
"Europe",2009,"30 to 34",16349
"Europe",2009,"35 to 39",8018
"Europe",2009,"40 to 44",1564
"Europe",2009,"45 and over",94
"Europe",2009,"All ages",54816
"Europe",2010,"< 20",1605
"Europe",2010,"20 to 24",9115
"Europe",2010,"25 to 29",19807
"Europe",2010,"30 to 34",18649
"Europe",2010,"35 to 39",9165
"Europe",2010,"40 to 44",1814
"Europe",2010,"45 and over",92
"Europe",2010,"All ages",60247
"Europe",2011,"< 20",1462
"Europe",2011,"20 to 24",9006
"Europe",2011,"25 to 29",20096
"Europe",2011,"30 to 34",20201
"Europe",2011,"35 to 39",9761
"Europe",2011,"40 to 44",1946
"Europe",2011,"45 and over",123
"Europe",2011,"All ages",62595
"Europe",2012,"< 20",1606
"Europe",2012,"20 to 24",9327
"Europe",2012,"25 to 29",20577
"Europe",2012,"30 to 34",22248
"Europe",2012,"35 to 39",10738
"Europe",2012,"40 to 44",2158
"Europe",2012,"45 and over",147
"Europe",2012,"All ages",66801
"Europe",2013,"< 20",1687
"Europe",2013,"20 to 24",9144
"Europe",2013,"25 to 29",20270
"Europe",2013,"30 to 34",23214
"Europe",2013,"35 to 39",11724
"Europe",2013,"40 to 44",2243
"Europe",2013,"45 and over",125
"Europe",2013,"All ages",68407
"Europe",2014,"< 20",1805
"Europe",2014,"20 to 24",9397
"Europe",2014,"25 to 29",20670
"Europe",2014,"30 to 34",24852
"Europe",2014,"35 to 39",13169
"Europe",2014,"40 to 44",2548
"Europe",2014,"45 and over",188
"Europe",2014,"All ages",72629
"Europe",2015,"< 20",1917
"Europe",2015,"20 to 24",10204
"Europe",2015,"25 to 29",21709
"Europe",2015,"30 to 34",26752
"Europe",2015,"35 to 39",14639
"Europe",2015,"40 to 44",2877
"Europe",2015,"45 and over",180
"Europe",2015,"All ages",78278
"Europe",2016,"< 20",1883
"Europe",2016,"20 to 24",10492
"Europe",2016,"25 to 29",22301
"Europe",2016,"30 to 34",27631
"Europe",2016,"35 to 39",15900
"Europe",2016,"40 to 44",3191
"Europe",2016,"45 and over",201
"Europe",2016,"All ages",81599
"Europe",2017,"< 20",1907
"Europe",2017,"20 to 24",10269
"Europe",2017,"25 to 29",22074
"Europe",2017,"30 to 34",27282
"Europe",2017,"35 to 39",16682
"Europe",2017,"40 to 44",3437
"Europe",2017,"45 and over",206
"Europe",2017,"All ages",81857
